%YAML 1.1
%TAG !u! tag:unity3d.com,2011:
--- !u!74 &7400000
AnimationClip:
  m_ObjectHideFlags: 0
  m_PrefabParentObject: {fileID: 0}
  m_PrefabInternal: {fileID: 0}
  m_Name: Mushroom Bounce
  serializedVersion: 6
  m_Legacy: 0
  m_Compressed: 0
  m_UseHighQualityCurve: 1
  m_RotationCurves: []
  m_CompressedRotationCurves: []
  m_PositionCurves:
  - curve:
      serializedVersion: 2
      m_Curve:
      - time: 0
        value: {x: -0, y: -0, z: .200000003}
        inSlope: {x: 0, y: 0, z: -7.79999924}
        outSlope: {x: 0, y: 0, z: -7.79999924}
        tangentMode: 0
      - time: .0333333351
        value: {x: 0, y: -0, z: -.0599999987}
        inSlope: {x: 0, y: .149999991, z: 3.45000029}
        outSlope: {x: 0, y: .149999991, z: 3.45000029}
        tangentMode: 0
      - time: .0666666701
        value: {x: 0, y: .00999999978, z: .430000007}
        inSlope: {x: 0, y: -1.49011612e-08, z: 3.89999962}
        outSlope: {x: 0, y: -1.49011612e-08, z: 3.89999962}
        tangentMode: 0
      - time: .100000001
        value: {x: -0, y: -0, z: .200000003}
        inSlope: {x: -0, y: -.300000012, z: -6.90000057}
        outSlope: {x: -0, y: -.300000012, z: -6.90000057}
        tangentMode: 0
      m_PreInfinity: 2
      m_PostInfinity: 2
    path: 
  m_ScaleCurves:
  - curve:
      serializedVersion: 2
      m_Curve:
      - time: 0
        value: {x: 1, y: 1, z: 1}
        inSlope: {x: 4.02426481, y: 4.02426481, z: -9.53515816}
        outSlope: {x: 4.02426481, y: 4.02426481, z: -9.53515816}
        tangentMode: 0
      - time: .0333333351
        value: {x: 1.13414216, y: 1.13414216, z: .682161391}
        inSlope: {x: -3.00394225, y: -3.00394225, z: 2.90572453}
        outSlope: {x: -3.00394225, y: -3.00394225, z: 2.90572453}
        tangentMode: 0
      - time: .0666666701
        value: {x: .799737155, y: .799737155, z: 1.19371498}
        inSlope: {x: -2.01213169, y: -2.01213169, z: 4.76757908}
        outSlope: {x: -2.01213169, y: -2.01213169, z: 4.76757908}
        tangentMode: 0
      - time: .100000001
        value: {x: 1, y: 1, z: 1}
        inSlope: {x: 6.00788593, y: 6.00788593, z: -5.81144953}
        outSlope: {x: 6.00788593, y: 6.00788593, z: -5.81144953}
        tangentMode: 0
      m_PreInfinity: 2
      m_PostInfinity: 2
    path: 
  m_FloatCurves: []
  m_PPtrCurves: []
  m_SampleRate: 60
  m_WrapMode: 0
  m_Bounds:
    m_Center: {x: 0, y: 0, z: 0}
    m_Extent: {x: 0, y: 0, z: 0}
  m_ClipBindingConstant:
    genericBindings:
    - path: 0
      attribute: 1
      script: {fileID: 0}
      classID: 4
      customType: 0
      isPPtrCurve: 0
    - path: 0
      attribute: 3
      script: {fileID: 0}
      classID: 4
      customType: 0
      isPPtrCurve: 0
    pptrCurveMapping: []
  m_AnimationClipSettings:
    serializedVersion: 2
    m_StartTime: 0
    m_StopTime: .100000001
    m_OrientationOffsetY: 0
    m_Level: 0
    m_CycleOffset: 0
    m_LoopTime: 0
    m_LoopBlend: 0
    m_LoopBlendOrientation: 0
    m_LoopBlendPositionY: 0
    m_LoopBlendPositionXZ: 0
    m_KeepOriginalOrientation: 0
    m_KeepOriginalPositionY: 1
    m_KeepOriginalPositionXZ: 0
    m_HeightFromFeet: 0
    m_Mirror: 0
  m_EditorCurves:
  - curve:
      serializedVersion: 2
      m_Curve:
      - time: 0
        value: -0
        inSlope: 0
        outSlope: 0
        tangentMode: 10
      - time: .0333333351
        value: 0
        inSlope: 0
        outSlope: 0
        tangentMode: 10
      - time: .0666666701
        value: 0
        inSlope: 0
        outSlope: 0
        tangentMode: 10
      - time: .100000001
        value: -0
        inSlope: -0
        outSlope: -0
        tangentMode: 10
      m_PreInfinity: 2
      m_PostInfinity: 2
    attribute: m_LocalPosition.x
    path: 
    classID: 4
    script: {fileID: 0}
  - curve:
      serializedVersion: 2
      m_Curve:
      - time: 0
        value: -0
        inSlope: 0
        outSlope: 0
        tangentMode: 10
      - time: .0333333351
        value: -0
        inSlope: .149999991
        outSlope: .149999991
        tangentMode: 10
      - time: .0666666701
        value: .00999999978
        inSlope: -1.49011612e-08
        outSlope: -1.49011612e-08
        tangentMode: 10
      - time: .100000001
        value: -0
        inSlope: -.300000012
        outSlope: -.300000012
        tangentMode: 10
      m_PreInfinity: 2
      m_PostInfinity: 2
    attribute: m_LocalPosition.y
    path: 
    classID: 4
    script: {fileID: 0}
  - curve:
      serializedVersion: 2
      m_Curve:
      - time: 0
        value: .200000003
        inSlope: -7.79999924
        outSlope: -7.79999924
        tangentMode: 10
      - time: .0333333351
        value: -.0599999987
        inSlope: 3.45000029
        outSlope: 3.45000029
        tangentMode: 10
      - time: .0666666701
        value: .430000007
        inSlope: 3.89999962
        outSlope: 3.89999962
        tangentMode: 10
      - time: .100000001
        value: .200000003
        inSlope: -6.90000057
        outSlope: -6.90000057
        tangentMode: 10
      m_PreInfinity: 2
      m_PostInfinity: 2
    attribute: m_LocalPosition.z
    path: 
    classID: 4
    script: {fileID: 0}
  - curve:
      serializedVersion: 2
      m_Curve:
      - time: 0
        value: 1
        inSlope: 4.02426481
        outSlope: 4.02426481
        tangentMode: 10
      - time: .0333333351
        value: 1.13414216
        inSlope: -3.00394225
        outSlope: -3.00394225
        tangentMode: 10
      - time: .0666666701
        value: .799737155
        inSlope: -2.01213169
        outSlope: -2.01213169
        tangentMode: 10
      - time: .100000001
        value: 1
        inSlope: 6.00788593
        outSlope: 6.00788593
        tangentMode: 10
      m_PreInfinity: 2
      m_PostInfinity: 2
    attribute: m_LocalScale.x
    path: 
    classID: 4
    script: {fileID: 0}
  - curve:
      serializedVersion: 2
      m_Curve:
      - time: 0
        value: 1
        inSlope: 4.02426481
        outSlope: 4.02426481
        tangentMode: 10
      - time: .0333333351
        value: 1.13414216
        inSlope: -3.00394225
        outSlope: -3.00394225
        tangentMode: 10
      - time: .0666666701
        value: .799737155
        inSlope: -2.01213169
        outSlope: -2.01213169
        tangentMode: 10
      - time: .100000001
        value: 1
        inSlope: 6.00788593
        outSlope: 6.00788593
        tangentMode: 10
      m_PreInfinity: 2
      m_PostInfinity: 2
    attribute: m_LocalScale.y
    path: 
    classID: 4
    script: {fileID: 0}
  - curve:
      serializedVersion: 2
      m_Curve:
      - time: 0
        value: 1
        inSlope: -9.53515816
        outSlope: -9.53515816
        tangentMode: 10
      - time: .0333333351
        value: .682161391
        inSlope: 2.90572453
        outSlope: 2.90572453
        tangentMode: 10
      - time: .0666666701
        value: 1.19371498
        inSlope: 4.76757908
        outSlope: 4.76757908
        tangentMode: 10
      - time: .100000001
        value: 1
        inSlope: -5.81144953
        outSlope: -5.81144953
        tangentMode: 10
      m_PreInfinity: 2
      m_PostInfinity: 2
    attribute: m_LocalScale.z
    path: 
    classID: 4
    script: {fileID: 0}
  m_EulerEditorCurves: []
  m_HasGenericRootTransform: 1
  m_HasMotionFloatCurves: 0
  m_GenerateMotionCurves: 0
  m_Events: []
