%YAML 1.1
%TAG !u! tag:unity3d.com,2011:
--- !u!114 &11400000
MonoBehaviour:
  m_ObjectHideFlags: 0
  m_PrefabParentObject: {fileID: 0}
  m_PrefabInternal: {fileID: 0}
  m_GameObject: {fileID: 0}
  m_Enabled: 1
  m_EditorHideFlags: 0
  m_Script: {fileID: 11500000, guid: 624a894a33d6f5a468e01be2b96f3818, type: 3}
  m_Name: WanderingFlierState
  m_EditorClassIdentifier: 
  m_UseRunningSpeed: 0
  m_AnimatorState: 
  m_HitstunState: {fileID: 11400000, guid: 727e8ddcf0b423b4ebca10f3322679a9, type: 2}
  m_DyingState: {fileID: 11400000, guid: 03498d38b21846848827977d5d0046d3, type: 2}
  m_StateUponSeeingPlayer: {fileID: 11400000, guid: eaf5f3f2b0fe3804cb8622cf8fc76753,
    type: 2}
  m_TrackTimerPausingDistance: 0.1
