%YAML 1.1
%TAG !u! tag:unity3d.com,2011:
--- !u!114 &11400000
MonoBehaviour:
  m_ObjectHideFlags: 0
  m_PrefabParentObject: {fileID: 0}
  m_PrefabInternal: {fileID: 0}
  m_GameObject: {fileID: 0}
  m_Enabled: 1
  m_EditorHideFlags: 0
  m_Script: {fileID: 11500000, guid: 8525645647eaff8478b387f4c29e694e, type: 3}
  m_Name: AirDigAntonState
  m_EditorClassIdentifier: 
  m_CanSwitchCharacters: 0
  m_AnimatorState: AirDig
  m_HitstunState: {fileID: 11400000, guid: 34e942e5ea42fa94b8c1ddba6844f7b8, type: 2}
  m_DisabledControls: 1
  m_UseFriction: 0
  m_CameraMode: 2
  m_StandingState: {fileID: 11400000, guid: 406f50b5a1385bd44a37828229f436af, type: 2}
  m_SwimmingState: {fileID: 11400000, guid: 62c7acd247eae8f46a720b4ed73dcdf1, type: 2}
  m_UnderwaterTransitionState: {fileID: 11400000, guid: 99a53749b72ca2b4bb540b806240cd38,
    type: 2}
  m_DuringDigState: {fileID: 11400000, guid: 908378e1958884c4ea30f0e3afceff83, type: 2}
  m_MidairState: {fileID: 11400000, guid: 44e804f83f513494c912d6041590afca, type: 2}
  m_BounceJumpState: {fileID: 11400000, guid: 16378115ca581ac4188edd3931d9e2fa, type: 2}
  m_PreDigState: {fileID: 11400000, guid: e46dcb62b12a5fc41ace08766be03fc9, type: 2}
  m_AirDigActivateValue: 5
  m_DownForce: 22
  m_Timer:
    m_MaxTime: 0
  m_TimerLength: 0
  m_HoldOffToggleOn: 0
