%YAML 1.1
%TAG !u! tag:unity3d.com,2011:
--- !u!114 &11400000
MonoBehaviour:
  m_ObjectHideFlags: 0
  m_PrefabParentObject: {fileID: 0}
  m_PrefabInternal: {fileID: 0}
  m_GameObject: {fileID: 0}
  m_Enabled: 1
  m_EditorHideFlags: 0
  m_Script: {fileID: 11500000, guid: 4733d38e7c5b5534a94364ee305fc0c8, type: 3}
  m_Name: BounceJumpAntonState
  m_EditorClassIdentifier: 
  m_CanSwitchCharacters: 0
  m_AnimatorState: Midair
  m_HitstunState: {fileID: 11400000, guid: 34e942e5ea42fa94b8c1ddba6844f7b8, type: 2}
  m_DisabledControls: 1
  m_UseFriction: 0
  m_CameraMode: 1
  m_DownForce: 18
  m_BounceLimit: 0
  m_RequiredDistanceToGround: 1.5
  m_BounceForce: 8.3
  m_MidairState: {fileID: 11400000, guid: 9f7ecd6d34cbb8a44ac7f20ebb1a2a6c, type: 2}
  m_LandingState: {fileID: 11400000, guid: bd5743ee711410d45897afab08722b2f, type: 2}
  m_AirDigState: {fileID: 11400000, guid: 7a4f9cf32525708458b64e21ce62bfbf, type: 2}
  m_PreDigState: {fileID: 11400000, guid: e46dcb62b12a5fc41ace08766be03fc9, type: 2}
  m_RequiredHoldTime: 0.15
  m_TrueCanGoToDigFalseCannotGoToDig: 1
  m_DirectlyBounceOnNoneDiggable: 0
