%YAML 1.1
%TAG !u! tag:unity3d.com,2011:
--- !u!114 &11400000
MonoBehaviour:
  m_ObjectHideFlags: 0
  m_PrefabParentObject: {fileID: 0}
  m_PrefabInternal: {fileID: 0}
  m_GameObject: {fileID: 0}
  m_Enabled: 1
  m_EditorHideFlags: 0
  m_Script: {fileID: 11500000, guid: 3b92f86b20fe38745a66bec8da02fe94, type: 3}
  m_Name: CooldownSergeantState
  m_EditorClassIdentifier: 
  m_UseRunningSpeed: 0
  m_AnimatorState: Idle
  m_HitstunState: {fileID: 11400000, guid: f11a1049270a982489df8593cdf36359, type: 2}
  m_DyingState: {fileID: 11400000, guid: a11fa1deb60439441b9ac8e97ce14695, type: 2}
  m_UseFriction: 1
  m_CanDamage: 0
  m_StateTimer:
    m_MaxTime: 1
  m_TimerState: {fileID: 11400000, guid: 4d2172ef9dea7ef44bf6b9940bb8ccda, type: 2}
  m_Acceleration: 0.5
