%YAML 1.1
%TAG !u! tag:unity3d.com,2011:
--- !u!114 &11400000
MonoBehaviour:
  m_ObjectHideFlags: 0
  m_PrefabParentObject: {fileID: 0}
  m_PrefabInternal: {fileID: 0}
  m_GameObject: {fileID: 0}
  m_Enabled: 1
  m_EditorHideFlags: 0
  m_Script: {fileID: 11500000, guid: 6c9491ced66fd3148be94ff57186170b, type: 3}
  m_Name: DashChargingCoolpeckerState
  m_EditorClassIdentifier: 
  m_CanSwitchCharacters: 0
  m_AnimatorState: DashCharge
  m_HitstunState: {fileID: 11400000, guid: 901c4cc5ad8d994488490651c7b26a22, type: 2}
  m_DisabledControls: 0
  m_UseFriction: 0
  m_CameraMode: 7
  m_MaxChargeTime: 2
  m_RotateSpeedMultiplier: 0.1
  m_MidairDashingState: {fileID: 11400000, guid: d50be02a29b3bc64d8cfe586868c645b,
    type: 2}
  m_SwimmingState: {fileID: 11400000, guid: bd38f0da490755445bf1c17344aac51c, type: 2}
  m_DashingState: {fileID: 11400000, guid: f660e3188f2354047bd5f164230b26ff, type: 2}
  m_StandingState: {fileID: 11400000, guid: c65767ce513e7e547b83f6703539275a, type: 2}
  m_SlidingState: {fileID: 11400000, guid: 2532a4bb5aa280e40af16b83f003c9cc, type: 2}
  m_FullChargeState: {fileID: 11400000, guid: a3d69af9491df1940bea6c1ab66c2365, type: 2}
