%YAML 1.1
%TAG !u! tag:unity3d.com,2011:
--- !u!114 &11400000
MonoBehaviour:
  m_ObjectHideFlags: 0
  m_PrefabParentObject: {fileID: 0}
  m_PrefabInternal: {fileID: 0}
  m_GameObject: {fileID: 0}
  m_Enabled: 1
  m_EditorHideFlags: 0
  m_Script: {fileID: 11500000, guid: 5dc6a0ce5a9285a45bfb1e5231ce60a2, type: 3}
  m_Name: GlidingCoolpeckerState
  m_EditorClassIdentifier: 
  m_CanSwitchCharacters: 1
  m_AnimatorState: Glide
  m_HitstunState: {fileID: 11400000, guid: 901c4cc5ad8d994488490651c7b26a22, type: 2}
  m_DisabledControls: 0
  m_UseFriction: 0
  m_CameraMode: 6
  m_MaxSpeedMultiplier: 1.5
  m_DesiredGlideForce: 15
  m_AccelerationMultiplier: 0.2
  m_RotateSpeedMultiplier: 0.1
  m_LerpToStartTotalTime: 4
  m_Drag: 0.15
  m_StallSpeed: 4
  m_BankSpeed: 30
  m_BankLimit: 30
  m_ReleasePenalty: 0.5
  m_MaxGlideTime: 3
  m_UseDrag: 1
  m_Default: 1
  m_LerpToStartForce: 0
  m_SnapToStartForce: 0
  m_StateTimer:
    m_MaxTime: 3
  m_TimerState: {fileID: 11400000, guid: a23c789e473a51f41bee7655d91b0589, type: 2}
