%YAML 1.1
%TAG !u! tag:unity3d.com,2011:
--- !u!114 &11400000
MonoBehaviour:
  m_ObjectHideFlags: 0
  m_PrefabParentObject: {fileID: 0}
  m_PrefabInternal: {fileID: 0}
  m_GameObject: {fileID: 0}
  m_Enabled: 1
  m_EditorHideFlags: 0
  m_Script: {fileID: 11500000, guid: 24483593802af0d48a4394cc3d1e834e, type: 3}
  m_Name: SlidingCoolpeckerState
  m_EditorClassIdentifier: 
  m_CanSwitchCharacters: 1
  m_AnimatorState: 
  m_HitstunState: {fileID: 11400000, guid: 901c4cc5ad8d994488490651c7b26a22, type: 2}
  m_DisabledControls: 0
  m_UseFriction: 0
  m_CameraMode: 5
  m_StandingState: {fileID: 11400000, guid: c65767ce513e7e547b83f6703539275a, type: 2}
  m_MidairState: {fileID: 11400000, guid: a23c789e473a51f41bee7655d91b0589, type: 2}
  m_SwimmingState: {fileID: 11400000, guid: bd38f0da490755445bf1c17344aac51c, type: 2}
  m_SlideAccelerationModifier: 0.5
  m_SlideMaxSpeedModifier: 1
  m_SlideTransitionSpeed: 2
  m_Slipperiness: 1
