%YAML 1.1
%TAG !u! tag:unity3d.com,2011:
--- !u!114 &11400000
MonoBehaviour:
  m_ObjectHideFlags: 0
  m_PrefabParentObject: {fileID: 0}
  m_PrefabInternal: {fileID: 0}
  m_GameObject: {fileID: 0}
  m_Enabled: 1
  m_EditorHideFlags: 0
  m_Script: {fileID: 11500000, guid: 82b7280d9f0bcb746957a87ae838c4c1, type: 3}
  m_Name: SprintCoolpeckerState
  m_EditorClassIdentifier: 
  m_CanSwitchCharacters: 0
  m_AnimatorState: 
  m_HitstunState: {fileID: 11400000, guid: 901c4cc5ad8d994488490651c7b26a22, type: 2}
  m_DisabledControls: 0
  m_UseFriction: 0
  m_CameraMode: 5
  m_MidairState: {fileID: 11400000, guid: 07c372bdd6a793844843069b1efa570e, type: 2}
  m_SlidingState: {fileID: 11400000, guid: 2532a4bb5aa280e40af16b83f003c9cc, type: 2}
  m_SwimmingState: {fileID: 11400000, guid: bd38f0da490755445bf1c17344aac51c, type: 2}
  m_InterpolateGravityScaleY: 1
  m_UseExponentialAngleCalc: 1
  m_LinearCalcInterpolationMultiplier: 0.01
  m_LinearCalcAngleLimitX: 1
  m_LinearCalcAngleLimitY: 40
  m_GravityRayMaxDistance: 0.1
  m_UseSlideTurn: 1
  m_UseSlideEdgeDetection: 1
  m_UseSlideMinimumDeltaPositon: 1
  m_SlideTurnAngleTolerance: 40
  m_SlideTurnEdgeDetectionDistance: 3
  m_SlideRotationTurnTime: 0.4
  m_SlideVelocityTurnTime: 0.5
  m_TimeToStoreInput: 0.1
  m_MinimumTransformDelta: 0.1
  m_MaxSpeedMultiplier: 1.5
  m_MaxRotationMultiplier: 1
  m_MaxAccelerationMultiplier: 1
  m_MinSpeedMultiplier: 1
  m_MinRotationMultiplier: 1
  m_MinAccelerationMultiplier: 1
  m_AnimationSpeedDefault: 1
  m_AnimationSpeedAddition: 0.5
  m_AnimationExitTransition: 0.1
  m_SprintMovementInputRequirement: 0.95
  m_AxisIncrease: 1
  m_StandingState: {fileID: 11400000, guid: c65767ce513e7e547b83f6703539275a, type: 2}
