%YAML 1.1
%TAG !u! tag:unity3d.com,2011:
--- !u!114 &11400000
MonoBehaviour:
  m_ObjectHideFlags: 0
  m_PrefabParentObject: {fileID: 0}
  m_PrefabInternal: {fileID: 0}
  m_GameObject: {fileID: 0}
  m_Enabled: 1
  m_EditorHideFlags: 0
  m_Script: {fileID: 11500000, guid: 7dd7f5fb06c7622488a306be4d88f812, type: 3}
  m_Name: SwimmingCoolpeckerState
  m_EditorClassIdentifier: 
  m_CanSwitchCharacters: 1
  m_AnimatorState: SwimIdle
  m_HitstunState: {fileID: 11400000, guid: 901c4cc5ad8d994488490651c7b26a22, type: 2}
  m_DisabledControls: 0
  m_UseFriction: 0
  m_CameraMode: 5
  m_StandingState: {fileID: 11400000, guid: c65767ce513e7e547b83f6703539275a, type: 2}
  m_UnderwaterState: {fileID: 11400000, guid: a6fd0a73263d63e4db28eb55b9b2de94, type: 2}
  m_UnderwaterTransitionState: {fileID: 11400000, guid: b89e82a6bad94cb4dba003501a15d8d0,
    type: 2}
  m_MidairState: {fileID: 11400000, guid: a23c789e473a51f41bee7655d91b0589, type: 2}
  m_MaxSpeedMultiplier: .5
  m_JumpHeightMultiplier: .5
  m_RotateSpeedMultiplier: .5
  m_DesiredJumpHeight: 10.3000002
  m_OriginalJumpHeightOffset: 0
  m_JumpDistanceOffset: .800000012
  m_RayCheckJumpOffset: 1
