%YAML 1.1
%TAG !u! tag:unity3d.com,2011:
--- !u!114 &11400000
MonoBehaviour:
  m_ObjectHideFlags: 0
  m_PrefabParentObject: {fileID: 0}
  m_PrefabInternal: {fileID: 0}
  m_GameObject: {fileID: 0}
  m_Enabled: 1
  m_EditorHideFlags: 0
  m_Script: {fileID: 11500000, guid: 6f180b5f8e834e14f8dcb6e24f46b459, type: 3}
  m_Name: DyingSoldierState
  m_EditorClassIdentifier: 
  m_UseRunningSpeed: 0
  m_AnimatorState: Die
  m_HitstunState: {fileID: 11400000, guid: 079adfd51768c7e47897efb6f3aa6d0d, type: 2}
  m_DyingState: {fileID: 11400000}
  m_UseFriction: 0
  m_CanDamage: 0
  m_DeadState: {fileID: 11400000, guid: e403b8275530a374ebd6cb73537322b5, type: 2}
  m_Timer:
    m_MaxTime: 3
  m_Acceleration: 6
