%YAML 1.1
%TAG !u! tag:unity3d.com,2011:
--- !u!114 &11400000
MonoBehaviour:
  m_ObjectHideFlags: 0
  m_PrefabParentObject: {fileID: 0}
  m_PrefabInternal: {fileID: 0}
  m_GameObject: {fileID: 0}
  m_Enabled: 1
  m_EditorHideFlags: 0
  m_Script: {fileID: 11500000, guid: ea886ad1fb18ebd4b80f0b0a77e02dfc, type: 3}
  m_Name: MovingToPlayerSoldierState
  m_EditorClassIdentifier: 
  m_UseRunningSpeed: 1
  m_AnimatorState: Walk
  m_HitstunState: {fileID: 11400000, guid: 079adfd51768c7e47897efb6f3aa6d0d, type: 2}
  m_DyingState: {fileID: 11400000, guid: 6d1998ff783d50f4896325902c0ad010, type: 2}
  m_StateUponLosingPlayer: {fileID: 11400000, guid: 079adfd51768c7e47897efb6f3aa6d0d,
    type: 2}
  m_StateUponReachingPlayer: {fileID: 11400000, guid: 7e40473ffbbf4004f8b15f1772de7e2f,
    type: 2}
  m_TargetOffset: {x: 0, y: 0, z: 0}
  m_PlayerReachingDistance: 5.5
  m_AimingLeewayDegrees: 5
