%YAML 1.1
%TAG !u! tag:unity3d.com,2011:
--- !u!114 &11400000
MonoBehaviour:
  m_ObjectHideFlags: 0
  m_PrefabParentObject: {fileID: 0}
  m_PrefabInternal: {fileID: 0}
  m_GameObject: {fileID: 0}
  m_Enabled: 1
  m_EditorHideFlags: 0
  m_Script: {fileID: 11500000, guid: 93271cd0ca012584181c7c04b789c7c1, type: 3}
  m_Name: StartledSoldierState
  m_EditorClassIdentifier: 
  m_UseRunningSpeed: 0
  m_AnimatorState: Startle
  m_HitstunState: {fileID: 11400000, guid: 079adfd51768c7e47897efb6f3aa6d0d, type: 2}
  m_DyingState: {fileID: 11400000, guid: 6d1998ff783d50f4896325902c0ad010, type: 2}
  m_UseFriction: 1
  m_CanDamage: 1
  m_StartleProbability: 0.5
  m_JumpHeight: 1
  m_OnlyStartleFirstTime: 0
  m_TurnTowardsPlayer: 1
  m_StateTimer:
    m_MaxTime: 1
  m_TimerState: {fileID: 11400000, guid: 2ce3b32e3a0d92745b7b7033af39a07f, type: 2}
