%YAML 1.1
%TAG !u! tag:unity3d.com,2011:
--- !u!114 &11400000
MonoBehaviour:
  m_ObjectHideFlags: 0
  m_PrefabParentObject: {fileID: 0}
  m_PrefabInternal: {fileID: 0}
  m_GameObject: {fileID: 0}
  m_Enabled: 1
  m_EditorHideFlags: 0
  m_Script: {fileID: 11500000, guid: ecc128dda7a513847b390fd902ea54a7, type: 3}
  m_Name: UnderwaterSwimmingAntonState
  m_EditorClassIdentifier: 
  m_CanSwitchCharacters: 0
  m_isUnderwater: 1
  m_AnimatorState: 
  m_HitstunState: {fileID: 11400000, guid: 34e942e5ea42fa94b8c1ddba6844f7b8, type: 2}
  m_DisabledControls: 0
  m_UseFriction: 0
  m_CameraMode: 3
