%YAML 1.1
%TAG !u! tag:unity3d.com,2011:
--- !u!114 &11400000
MonoBehaviour:
  m_ObjectHideFlags: 0
  m_PrefabParentObject: {fileID: 0}
  m_PrefabInternal: {fileID: 0}
  m_GameObject: {fileID: 0}
  m_Enabled: 1
  m_EditorHideFlags: 0
  m_Script: {fileID: 11500000, guid: 0793cdec0e22eeb43a3d3c1b50449673, type: 3}
  m_Name: UnderwaterAntonState
  m_EditorClassIdentifier: 
  m_CanSwitchCharacters: 0
  m_AnimatorState: SwimIdle
  m_HitstunState: {fileID: 11400000, guid: 34e942e5ea42fa94b8c1ddba6844f7b8, type: 2}
  m_DisabledControls: 0
  m_UseFriction: 0
  m_CameraMode: 3
  m_BubbleParticles: {fileID: 19885706, guid: 18bec6720aaa37c4cb04f46c4722a3a0, type: 2}
  m_Velocity: 1.2
  m_ColliderHeight: 1.37
  m_FloatUpwardsYCoord: 2
  m_SwimmingState: {fileID: 11400000, guid: 62c7acd247eae8f46a720b4ed73dcdf1, type: 2}
  m_UnderwaterTransitionState: {fileID: 11400000, guid: 99a53749b72ca2b4bb540b806240cd38,
    type: 2}
  m_MidairState: {fileID: 11400000, guid: 44e804f83f513494c912d6041590afca, type: 2}
  m_MaxSpeedMultiplier: 0.5000272
  m_AccelerationMultiplier: 0.500011
  m_JumpHeightMultiplier: 1
  m_RotateSpeedMultiplier: 1
  m_AllowFrogSwim: 1
  m_DownwardsFloat: 0.8
