%YAML 1.1
%TAG !u! tag:unity3d.com,2011:
--- !u!1001 &100100000
Prefab:
  m_ObjectHideFlags: 1
  serializedVersion: 2
  m_Modification:
    m_TransformParent: {fileID: 0}
    m_Modifications: []
    m_RemovedComponents: []
  m_ParentPrefab: {fileID: 0}
  m_RootGameObject: {fileID: 1000012341890048}
  m_IsPrefabParent: 1
--- !u!1 &1000012341890048
GameObject:
  m_ObjectHideFlags: 0
  m_PrefabParentObject: {fileID: 0}
  m_PrefabInternal: {fileID: 100100000}
  serializedVersion: 4
  m_Component:
  - 4: {fileID: 4000011349492284}
  - 114: {fileID: 114000011861896878}
  m_Layer: 0
  m_Name: ExampleCutscenePath
  m_TagString: Untagged
  m_Icon: {fileID: 0}
  m_NavMeshLayer: 0
  m_StaticEditorFlags: 0
  m_IsActive: 1
--- !u!4 &4000011349492284
Transform:
  m_ObjectHideFlags: 1
  m_PrefabParentObject: {fileID: 0}
  m_PrefabInternal: {fileID: 100100000}
  m_GameObject: {fileID: 1000012341890048}
  m_LocalRotation: {x: 0, y: 0, z: 0, w: 1}
  m_LocalPosition: {x: 0, y: 0, z: 0}
  m_LocalScale: {x: 1, y: 1, z: 1}
  m_LocalEulerAnglesHint: {x: 0, y: 0, z: 0}
  m_Children: []
  m_Father: {fileID: 0}
  m_RootOrder: 0
--- !u!114 &114000011861896878
MonoBehaviour:
  m_ObjectHideFlags: 1
  m_PrefabParentObject: {fileID: 0}
  m_PrefabInternal: {fileID: 100100000}
  m_GameObject: {fileID: 1000012341890048}
  m_Enabled: 1
  m_EditorHideFlags: 0
  m_Script: {fileID: 11500000, guid: c694b70a97a3eac45b1315773b063ac4, type: 3}
  m_Name: 
  m_EditorClassIdentifier: 
  EditorPoints:
  - position: {x: 2207.7522, y: 105.44089, z: 812.2904}
    TimeToThisNode: 0
    Rotation: {x: 0.13349438, y: 0.5305683, z: -0.08505486, w: 0.83273184}
    FieldOfView: 39.01
    DrawFrustrum: 0
    RequireInputToAdvance: 0
    TimeOrSpeed: 0
    InputAutoAdvance: 0
  - position: {x: 2183.5745, y: 85.60934, z: 758.1692}
    TimeToThisNode: 2
    Rotation: {x: 0.09898653, y: 0.8672461, z: -0.26623848, w: 0.4089049}
    FieldOfView: 40
    DrawFrustrum: 0
    RequireInputToAdvance: 0
    TimeOrSpeed: 0
    InputAutoAdvance: 1
  - position: {x: 2124.9368, y: 70.25859, z: 755.1597}
    TimeToThisNode: 2
    Rotation: {x: 0.0050605377, y: 0.9227958, z: -0.110345885, w: -0.36911574}
    FieldOfView: 40
    DrawFrustrum: 0
    RequireInputToAdvance: 0
    TimeOrSpeed: 0
    InputAutoAdvance: 1
  - position: {x: 2108.5247, y: 52.280357, z: 809.1864}
    TimeToThisNode: 2
    Rotation: {x: -0.21217972, y: 0.35286978, z: -0.10433944, w: -0.90530455}
    FieldOfView: 40
    DrawFrustrum: 0
    RequireInputToAdvance: 0
    TimeOrSpeed: 0
    InputAutoAdvance: 1
  - position: {x: 2117.9314, y: 5.082901, z: 983.4412}
    TimeToThisNode: 0
    Rotation: {x: -0.026179766, y: 0.9965869, z: 0.06994733, w: 0.035170943}
    FieldOfView: 40
    DrawFrustrum: 0
    RequireInputToAdvance: 0
    TimeOrSpeed: 0
    InputAutoAdvance: 0
  - position: {x: 2125.3306, y: 5.082901, z: 1063.9929}
    TimeToThisNode: 3
    Rotation: {x: -0.026179766, y: 0.9965869, z: 0.06994733, w: 0.035170943}
    FieldOfView: 40
    DrawFrustrum: 0
    RequireInputToAdvance: 0
    TimeOrSpeed: 0
    InputAutoAdvance: 1
  Points: []
  m_ID: 0
  m_Level: 0
  Skipable: 0
