%YAML 1.1
%TAG !u! tag:unity3d.com,2011:
--- !u!114 &11400000
MonoBehaviour:
  m_ObjectHideFlags: 0
  m_PrefabParentObject: {fileID: 0}
  m_PrefabInternal: {fileID: 0}
  m_GameObject: {fileID: 0}
  m_Enabled: 1
  m_EditorHideFlags: 0
  m_Script: {fileID: 11500000, guid: f82aaa3f473d2284c8579f01090b6128, type: 3}
  m_Name: UnderwaterSwimmingCoolpeckerState
  m_EditorClassIdentifier: 
  m_CanSwitchCharacters: 0
  m_AnimatorState: 
  m_HitstunState: {fileID: 11400000, guid: 901c4cc5ad8d994488490651c7b26a22, type: 2}
  m_DisabledControls: 0
  m_UseFriction: 0
  m_CameraMode: 3
