%YAML 1.1
%TAG !u! tag:unity3d.com,2011:
--- !u!114 &11400000
MonoBehaviour:
  m_ObjectHideFlags: 0
  m_PrefabParentObject: {fileID: 0}
  m_PrefabInternal: {fileID: 0}
  m_GameObject: {fileID: 0}
  m_Enabled: 1
  m_EditorHideFlags: 0
  m_Script: {fileID: 11500000, guid: 1b350b33212593c469ec8925bd597865, type: 3}
  m_Name: AutoCameraState
  m_EditorClassIdentifier: 
  m_FreeCameraState: {fileID: 11400000, guid: abad8bd0d6e6e6c439ae5f0dd86e3a9d, type: 2}
  m_PredictionSpeed: .5
  m_PredictionDistanceSideways: 4
  m_PredictionDistanceForward: 2.5
  m_PredictionDistanceBackwards: 4
