%YAML 1.1
%TAG !u! tag:unity3d.com,2011:
--- !u!114 &11400000
MonoBehaviour:
  m_ObjectHideFlags: 0
  m_PrefabParentObject: {fileID: 0}
  m_PrefabInternal: {fileID: 0}
  m_GameObject: {fileID: 0}
  m_Enabled: 1
  m_EditorHideFlags: 0
  m_Script: {fileID: 11500000, guid: 2dbd732c5ec252a4a911ab77c37e37af, type: 3}
  m_Name: UnderwaterCameraState
  m_EditorClassIdentifier: 
  m_MovInputSpeed: {x: 12, y: 12}
  m_UNDWATER_INPUT_FALSE_CAMERA_TRUE: 1
