%YAML 1.1
%TAG !u! tag:unity3d.com,2011:
--- !u!114 &11400000
MonoBehaviour:
  m_ObjectHideFlags: 0
  m_PrefabParentObject: {fileID: 0}
  m_PrefabInternal: {fileID: 0}
  m_GameObject: {fileID: 0}
  m_Enabled: 1
  m_EditorHideFlags: 0
  m_Script: {fileID: 11500000, guid: c330e477f6dd67242acc262190a8d3ff, type: 3}
  m_Name: CreditsMenuState
  m_EditorClassIdentifier: 
  m_Music: {fileID: 8300000, guid: babcf417962620a42be8b0d889cf919a, type: 3}
  m_PanelPrefab: {fileID: 11408128, guid: 694228d3fcfbaf0449e7bd1792caa5f5, type: 2}
