%YAML 1.1
%TAG !u! tag:unity3d.com,2011:
--- !u!114 &11400000
MonoBehaviour:
  m_ObjectHideFlags: 0
  m_PrefabParentObject: {fileID: 0}
  m_PrefabInternal: {fileID: 0}
  m_GameObject: {fileID: 0}
  m_Enabled: 1
  m_EditorHideFlags: 0
  m_Script: {fileID: 11500000, guid: f22d087a708f6a040982ef8a3ebf825e, type: 3}
  m_Name: NoneMenuState
  m_EditorClassIdentifier: 
  m_Music: {fileID: 0}
  m_PanelPrefab: {fileID: 11499232, guid: ec4a073eb813ccb4ab41d5edefe8a7e6, type: 2}
