%YAML 1.1
%TAG !u! tag:unity3d.com,2011:
--- !u!114 &11400000
MonoBehaviour:
  m_ObjectHideFlags: 0
  m_PrefabParentObject: {fileID: 0}
  m_PrefabInternal: {fileID: 0}
  m_GameObject: {fileID: 0}
  m_Enabled: 1
  m_EditorHideFlags: 0
  m_Script: {fileID: 11500000, guid: 13ff3d3c42be28c4ea7ee3b12dd1336b, type: 3}
  m_Name: StartMenuState
  m_EditorClassIdentifier: 
  m_Music: {fileID: 8300000, guid: babcf417962620a42be8b0d889cf919a, type: 3}
  m_PanelPrefab: {fileID: 11490922, guid: a03d942aefd6c4d4e835e2e0e7a5f888, type: 2}
