%YAML 1.1
%TAG !u! tag:unity3d.com,2011:
--- !u!1045 &1
EditorBuildSettings:
  m_ObjectHideFlags: 0
  serializedVersion: 2
  m_Scenes:
  - enabled: 1
    path: Assets/AntonCoolpecker/Scenes/Main.unity
  - enabled: 1
    path: Assets/AntonCoolpecker/Scenes/TestPlayground.unity
  - enabled: 1
    path: Assets/AntonCoolpecker/Scenes/AncientAnticts_Prot.unity
  - enabled: 1
    path: Assets/AntonCoolpecker/Scenes/TestArena.unity
  - enabled: 1
    path: Assets/AntonCoolpecker/Scenes/New_Tutorial.unity
  - enabled: 1
    path: Assets/AntonCoolpecker/Scenes/Poynette_Port_v2.unity
  - enabled: 1
    path: Assets/AntonCoolpecker/Scenes/Tranquil_Treeline.unity
  - enabled: 1
    path: Assets/AntonCoolpecker/Scenes/Poynette_Port.unity
  - enabled: 1
    path: Assets/AntonCoolpecker/Scenes/GameOver.unity
  - enabled: 0
    path: Assets/AntonCoolpecker/Scenes/Tutorial.unity
  - enabled: 0
    path: Assets/AntonCoolpecker/Scenes/Tutorial_Shrunk.unity
