%YAML 1.1
%TAG !u! tag:unity3d.com,2011:
--- !u!78 &1
TagManager:
  serializedVersion: 2
  tags:
  - Client
  - Enemy
  - Mushroom
  - Hoop
  layers:
  - Default
  - TransparentFX
  - Ignore Raycast
  - 
  - Water
  - UI
  - 
  - 
  - Menus
  - HUD
  - 3D
  - nodes
  - Player
  - Diggable
  - Enemy
  - Projectile
  - MovingPlatform
  - MovableRigidbody
  - AttackHitbox
  - 
  - 
  - 
  - 
  - 
  - 
  - 
  - 
  - 
  - 
  - 
  - 
  - 
  m_SortingLayers:
  - name: Default
    uniqueID: 0
    locked: 0
