<?xml version="1.0" encoding="utf-8"?>
<COLLADA xmlns="http://www.collada.org/2005/11/COLLADASchema" version="1.4.1">
  <asset>
    <contributor>
      <author>Blender User</author>
      <authoring_tool>Blender 2.77.0 commit date:2016-04-05, commit time:18:12, hash:abf6f08</authoring_tool>
    </contributor>
    <created>2016-09-15T21:33:26</created>
    <modified>2016-09-15T21:33:26</modified>
    <unit name="meter" meter="1"/>
    <up_axis>Z_UP</up_axis>
  </asset>
  <library_cameras>
    <camera id="Camera-camera" name="Camera">
      <optics>
        <technique_common>
          <perspective>
            <xfov sid="xfov">49.13434</xfov>
            <aspect_ratio>1.777778</aspect_ratio>
            <znear sid="znear">0.1</znear>
            <zfar sid="zfar">100</zfar>
          </perspective>
        </technique_common>
      </optics>
      <extra>
        <technique profile="blender">
          <YF_dofdist>0</YF_dofdist>
          <shiftx>0</shiftx>
          <shifty>0</shifty>
        </technique>
      </extra>
    </camera>
  </library_cameras>
  <library_lights>
    <light id="Lamp-light" name="Lamp">
      <technique_common>
        <point>
          <color sid="color">1 1 1</color>
          <constant_attenuation>1</constant_attenuation>
          <linear_attenuation>0</linear_attenuation>
          <quadratic_attenuation>0.00111109</quadratic_attenuation>
        </point>
      </technique_common>
      <extra>
        <technique profile="blender">
          <adapt_thresh>0.000999987</adapt_thresh>
          <area_shape>1</area_shape>
          <area_size>0.1</area_size>
          <area_sizey>0.1</area_sizey>
          <area_sizez>1</area_sizez>
          <atm_distance_factor>1</atm_distance_factor>
          <atm_extinction_factor>1</atm_extinction_factor>
          <atm_turbidity>2</atm_turbidity>
          <att1>0</att1>
          <att2>1</att2>
          <backscattered_light>1</backscattered_light>
          <bias>1</bias>
          <blue>1</blue>
          <buffers>1</buffers>
          <bufflag>0</bufflag>
          <bufsize>2880</bufsize>
          <buftype>2</buftype>
          <clipend>30.002</clipend>
          <clipsta>1.000799</clipsta>
          <compressthresh>0.04999995</compressthresh>
          <dist sid="blender_dist">29.99998</dist>
          <energy sid="blender_energy">1</energy>
          <falloff_type>2</falloff_type>
          <filtertype>0</filtertype>
          <flag>0</flag>
          <gamma sid="blender_gamma">1</gamma>
          <green>1</green>
          <halo_intensity sid="blnder_halo_intensity">1</halo_intensity>
          <horizon_brightness>1</horizon_brightness>
          <mode>8192</mode>
          <ray_samp>1</ray_samp>
          <ray_samp_method>1</ray_samp_method>
          <ray_samp_type>0</ray_samp_type>
          <ray_sampy>1</ray_sampy>
          <ray_sampz>1</ray_sampz>
          <red>1</red>
          <samp>3</samp>
          <shadhalostep>0</shadhalostep>
          <shadow_b sid="blender_shadow_b">0</shadow_b>
          <shadow_g sid="blender_shadow_g">0</shadow_g>
          <shadow_r sid="blender_shadow_r">0</shadow_r>
          <sky_colorspace>0</sky_colorspace>
          <sky_exposure>1</sky_exposure>
          <skyblendfac>1</skyblendfac>
          <skyblendtype>1</skyblendtype>
          <soft>3</soft>
          <spotblend>0.15</spotblend>
          <spotsize>75</spotsize>
          <spread>1</spread>
          <sun_brightness>1</sun_brightness>
          <sun_effect_type>0</sun_effect_type>
          <sun_intensity>1</sun_intensity>
          <sun_size>1</sun_size>
          <type>0</type>
        </technique>
      </extra>
    </light>
  </library_lights>
  <library_images/>
  <library_effects>
    <effect id="Riverbed-effect">
      <profile_COMMON>
        <technique sid="common">
          <phong>
            <emission>
              <color sid="emission">0 0 0 1</color>
            </emission>
            <ambient>
              <color sid="ambient">0 0 0 1</color>
            </ambient>
            <diffuse>
              <color sid="diffuse">0.64 0.5263848 0.28 1</color>
            </diffuse>
            <specular>
              <color sid="specular">0.5 0.5 0.5 1</color>
            </specular>
            <shininess>
              <float sid="shininess">50</float>
            </shininess>
            <index_of_refraction>
              <float sid="index_of_refraction">1</float>
            </index_of_refraction>
          </phong>
        </technique>
      </profile_COMMON>
    </effect>
    <effect id="Grass-effect">
      <profile_COMMON>
        <technique sid="common">
          <phong>
            <emission>
              <color sid="emission">0 0 0 1</color>
            </emission>
            <ambient>
              <color sid="ambient">0 0 0 1</color>
            </ambient>
            <diffuse>
              <color sid="diffuse">0.1429817 0.64 0.06556825 1</color>
            </diffuse>
            <specular>
              <color sid="specular">0.5 0.5 0.5 1</color>
            </specular>
            <shininess>
              <float sid="shininess">50</float>
            </shininess>
            <index_of_refraction>
              <float sid="index_of_refraction">1</float>
            </index_of_refraction>
          </phong>
        </technique>
      </profile_COMMON>
    </effect>
    <effect id="Stone-effect">
      <profile_COMMON>
        <technique sid="common">
          <phong>
            <emission>
              <color sid="emission">0 0 0 1</color>
            </emission>
            <ambient>
              <color sid="ambient">0 0 0 1</color>
            </ambient>
            <diffuse>
              <color sid="diffuse">0.64 0.64 0.64 1</color>
            </diffuse>
            <specular>
              <color sid="specular">0.5 0.5 0.5 1</color>
            </specular>
            <shininess>
              <float sid="shininess">50</float>
            </shininess>
            <index_of_refraction>
              <float sid="index_of_refraction">1</float>
            </index_of_refraction>
          </phong>
        </technique>
      </profile_COMMON>
    </effect>
  </library_effects>
  <library_materials>
    <material id="Riverbed-material" name="Riverbed">
      <instance_effect url="#Riverbed-effect"/>
    </material>
    <material id="Grass-material" name="Grass">
      <instance_effect url="#Grass-effect"/>
    </material>
    <material id="Stone-material" name="Stone">
      <instance_effect url="#Stone-effect"/>
    </material>
  </library_materials>
  <library_geometries>
    <geometry id="Cube-mesh" name="Cube">
      <mesh>
        <source id="Cube-mesh-positions">
          <float_array id="Cube-mesh-positions-array" count="204">0.8814082 -0.01137274 0.9792546 0.156405 -1.012158 0.9781477 -0.8688395 -0.1929232 0.9467222 0.05984187 0.7758067 0.9232152 0.7696727 -0.4562911 0.976681 0.5421926 -0.7647525 0.9843503 -0.8126676 0.1505452 0.9227635 -0.2841895 0.7071522 0.8954293 0.6370598 0.3767927 0.9716575 0.3841896 0.6204326 0.9183987 -0.2904586 -0.9013384 0.9666562 -0.7263454 -0.4169089 0.9498031 0.02256113 0.09550946 0.9422505 0.3988488 -0.04747819 0.9879431 -0.3654145 -0.1689762 0.9503211 0.08974152 -0.3784162 1.001859 0.7016667 0.2306456 0.4178247 0.6855626 0.1750703 0.6078893 0.8215604 0.004107654 0.7374765 0.180072 -0.6740787 0.4626684 0.1591832 -0.6691387 0.625908 0.003018915 -0.8224434 0.7176277 -0.7409382 -0.1519097 0.3707621 -0.7134273 -0.1277492 0.5733473 -0.8231185 -0.003674089 0.6910995 -0.2273309 0.7557002 0.3258693 -0.1438258 0.7299029 0.55532 -0.004577457 0.822877 0.7109482 -0.6844546 0.3405917 0.6931997 -0.6377794 0.2159582 0.5629476 -0.7057044 0.1809979 0.3435888 -0.3439912 0.6830449 0.7010575 -0.3930265 0.5611608 0.5551021 -0.484841 0.569894 0.3216001 0.6828229 -0.3385904 0.7353671 0.6468291 -0.1558603 0.6178368 0.6728627 -0.1210363 0.4379588 0.3423595 -0.6810437 0.7275093 0.4107211 -0.5069931 0.6258262 0.4381552 -0.4949807 0.4579823 0.5308747 0.4973323 0.3787135 0.53662 0.4263645 0.5889958 0.6810153 0.344408 0.7317883 0.1393171 0.7344829 0.3393905 0.1926649 0.6642308 0.5681048 0.3387438 0.6849531 0.7203518 -0.3403756 -0.6829518 0.7082149 -0.182955 -0.6219938 0.6127443 -0.166094 -0.6420345 0.4406141 -0.6826468 -0.3424067 0.6967785 -0.5356763 -0.3780815 0.5917029 -0.5432336 -0.4192751 0.403245 0.3910216 0.2372933 0.2674794 0.1990094 -0.3921734 0.3214895 -0.4176349 -0.2143481 0.2331381 -0.2392914 0.4119053 0.1802757 -0.4452779 -0.01222032 0.2067429 -0.3710452 0.2508915 0.1845836 0.4169086 0.03271406 0.2944038 0.3385593 -0.2304411 0.3169804 0.2289963 0.3716602 0.2351429 -0.03441768 0.443133 0.1987171 0.001259922 -0.4171547 0.3023293 -0.25823 -0.3453289 0.2654604 0.1184402 0.09685742 0.1722745 -0.1027949 0.1528379 0.1175549 -0.1670169 -0.1000384 0.1396321 0.04938352 -0.1664366 0.1828255</float_array>
          <technique_common>
            <accessor source="#Cube-mesh-positions-array" count="68" stride="3">
              <param name="X" type="float"/>
              <param name="Y" type="float"/>
              <param name="Z" type="float"/>
            </accessor>
          </technique_common>
        </source>
        <source id="Cube-mesh-normals">
          <float_array id="Cube-mesh-normals-array" count="396">-0.007573664 0.008935809 0.9999314 0.3017772 -0.6773386 -0.670927 -0.8389053 -0.3548117 -0.4127308 -0.3809831 0.9245786 0.002542972 -0.9077867 0.3668794 -0.2032805 -0.7046134 0.6975305 0.1302734 0.8990231 -0.3624467 -0.2457435 0.5647177 -0.5472622 -0.6177364 -0.0260728 0.06329417 0.9976544 -0.01940417 0.05891948 0.9980742 0.03674691 -0.002253293 0.9993221 -0.07709044 0.1136564 0.9905248 0.01878648 -0.01050108 0.9997684 -0.1114026 0.1004986 0.9886807 -0.2917535 -0.757625 -0.583853 -0.6642496 -0.6781753 -0.3144055 0.007410943 -0.03660899 0.9993022 -0.1074246 0.01117932 0.9941505 -0.02001637 -0.5128588 -0.8582397 -0.5115877 -0.8577892 0.04975831 -0.2983323 -0.5014753 -0.8121087 0.1423344 -0.4508563 -0.8811751 -0.09330791 -0.9954713 0.01818513 -0.03363382 -0.4876697 -0.8723801 0.6903862 0.7228629 0.02891796 0.6778074 0.6711618 -0.3001983 0.5392705 0.8022713 0.2560236 0.835011 0.5222449 -0.1732539 0.8363135 0.3381872 -0.4315196 0.831944 0.5095978 0.2194978 0.3891528 -0.1931353 -0.9006991 0.8472982 -0.5307455 0.01987713 0.5376363 -0.3786576 -0.7533696 0.4336621 -0.06342035 -0.898841 0.9950559 -0.07797724 0.06151002 0.620717 -0.09604144 -0.7781302 -0.436751 0.0475654 -0.898324 -0.8500856 0.4932227 0.1846239 -0.6324356 0.4338199 -0.6417363 -0.4138912 -0.1733061 -0.8936773 -0.9861485 0.1141896 0.1202996 -0.658542 0.1224743 -0.742511 0.4264313 0.8842893 0.1902337 0.344583 0.8275181 -0.4432566 0.1762049 0.951751 0.2512408 -0.3493564 0.2617995 -0.8996728 -0.5688577 0.7825719 0.2529472 -0.5005457 0.7397939 -0.449621 -0.2598851 -0.5174708 -0.8152815 -0.8030452 -0.574643 0.1578096 -0.5867682 -0.4652378 -0.6627646 0.3560794 -0.3315991 -0.8736416 0.5702077 -0.8207775 0.03445851 0.3688797 -0.5726156 -0.7321469 0.05714082 0.4062559 -0.911971 0.4334439 0.1471981 -0.8890778 0.2899761 0.3298082 -0.89841 0.2819287 0.1961704 -0.9391664 -0.1942549 0.1329509 -0.9718998 0.3635383 -0.07619148 -0.9284583 0.3390963 -0.180174 -0.9233369 -0.2413653 -0.02339965 -0.9701522 0.2051141 -0.1367024 -0.9691443 0.3401219 -0.3181449 -0.8849299 -0.1509971 -0.4061644 -0.9012382 0.008692145 -0.4316118 -0.9020175 -0.01052147 0.0712943 0.9973999 0.4489895 -0.6857618 -0.5728344 -0.8053675 -0.5163587 -0.2911309 -0.2093976 0.9392859 0.2718358 -0.9857665 0.1570258 -0.06006205 -0.7106735 0.6830354 0.1685409 0.8794023 -0.2184037 -0.4230265 0.6898163 -0.52121 -0.5024874 -0.05206179 -0.139334 0.9888759 -0.01886636 0.06690281 0.9975812 0.03777444 0.006736099 0.9992636 -0.05871278 0.1163801 0.9914679 0.01578795 0.02949917 0.9994402 -0.08184838 0.1014376 0.9914693 -0.1964895 -0.8440523 -0.4989667 -0.6760278 -0.6220295 -0.3950518 -0.0358783 -0.04113292 0.9985094 -0.01565116 0.02069514 0.9996634 -0.244488 -0.5481101 -0.7998756 -0.5654951 -0.8007069 0.1976965 -0.5611987 -0.5837488 -0.5867652 0.005397498 -0.5267186 -0.8500226 -0.1396197 -0.9850398 0.10101 -0.2261178 -0.6080027 -0.7610541 0.7024382 0.7083359 0.0695762 0.4928804 0.6632426 -0.5631857 0.501904 0.8527082 0.1448487 0.9172719 0.3807867 0.1166779 0.748817 0.4043427 -0.5251479 0.8198477 0.5489326 0.1628587 0.4105324 -0.3037104 -0.8597809 0.8270505 -0.5539499 0.09553611 0.584714 -0.5680264 -0.5791853 0.4467664 -0.0875653 -0.8903551 0.9863235 -0.1118026 0.1211045 0.7038983 -0.2809495 -0.6523762 -0.4549757 0.2094536 -0.8655209 -0.7685953 0.5522815 0.3228724 -0.6643862 0.6682077 -0.3347979 -0.4773269 -0.02118551 -0.8784704 -0.9420477 0.2151283 0.2574217 -0.7612518 0.3100925 -0.5695072 0.368962 0.9247704 0.0930956 0.1735074 0.7693223 -0.6148484 0.0541414 0.9942783 0.0920841 -0.2624151 0.3840227 -0.8852484 -0.5376229 0.7936008 0.2848848 -0.3668951 0.9056097 -0.212742 -0.4231125 -0.4109791 -0.8075099 -0.8085961 -0.5611926 0.1767352 -0.8406667 -0.3554723 -0.4085571 0.292619 -0.4438308 -0.8469878 0.5394087 -0.8367419 0.09434652 0.3106844 -0.7007195 -0.6422363 0.02357345 0.3891585 -0.9208692 0.3505183 0.202618 -0.9143757 0.2140619 0.318259 -0.9235199 0.1757012 0.151836 -0.9726638 0.04743361 0.258578 -0.9648252 0.2786279 0.1062723 -0.9545014 0.3912542 -0.1390728 -0.9097137 -0.2465478 -0.01205426 -0.9690557 0.1702021 -0.08398514 -0.9818238 0.1421176 -0.4479982 -0.8826665 -0.2793304 -0.161797 -0.9464651 0.03349196 -0.4660022 -0.8841495</float_array>
          <technique_common>
            <accessor source="#Cube-mesh-normals-array" count="132" stride="3">
              <param name="X" type="float"/>
              <param name="Y" type="float"/>
              <param name="Z" type="float"/>
            </accessor>
          </technique_common>
        </source>
        <vertices id="Cube-mesh-vertices">
          <input semantic="POSITION" source="#Cube-mesh-positions"/>
        </vertices>
        <polylist material="Riverbed-material" count="72">
          <input semantic="VERTEX" source="#Cube-mesh-vertices" offset="0"/>
          <input semantic="NORMAL" source="#Cube-mesh-normals" offset="1"/>
          <vcount>3 3 3 3 3 3 3 3 3 3 3 3 3 3 3 3 3 3 3 3 3 3 3 3 3 3 3 3 3 3 3 3 3 3 3 3 3 3 3 3 3 3 3 3 3 3 3 3 3 3 3 3 3 3 3 3 3 3 3 3 3 3 3 3 3 3 3 3 3 3 3 3 </vcount>
          <p>37 1 1 1 21 1 49 2 2 2 24 2 7 3 27 3 31 3 24 4 6 4 28 4 28 5 7 5 31 5 0 6 34 6 18 6 34 7 5 7 37 7 21 14 10 14 46 14 46 15 11 15 49 15 47 19 51 19 48 19 46 20 50 20 47 20 20 22 48 22 19 22 21 23 47 23 20 23 42 24 9 24 8 24 41 25 45 25 42 25 40 26 44 26 41 26 18 27 8 27 0 27 17 28 42 28 18 28 16 29 41 29 17 29 35 31 39 31 36 31 34 32 38 32 35 32 17 34 36 34 16 34 18 35 35 35 17 35 29 37 33 37 30 37 28 38 32 38 29 38 23 40 30 40 22 40 24 41 29 41 23 41 45 42 3 42 9 42 44 43 27 43 45 43 43 44 26 44 44 44 32 46 25 46 33 46 31 47 26 47 32 47 50 49 22 49 51 49 49 50 23 50 50 50 38 52 19 52 39 52 37 53 20 53 38 53 37 67 5 67 1 67 49 68 11 68 2 68 7 69 3 69 27 69 24 70 2 70 6 70 28 71 6 71 7 71 0 72 4 72 34 72 34 73 4 73 5 73 21 80 1 80 10 80 46 81 10 81 11 81 47 85 50 85 51 85 46 86 49 86 50 86 20 88 47 88 48 88 21 89 46 89 47 89 42 90 45 90 9 90 41 91 44 91 45 91 40 92 43 92 44 92 18 93 42 93 8 93 17 94 41 94 42 94 16 95 40 95 41 95 35 97 38 97 39 97 34 98 37 98 38 98 17 100 35 100 36 100 18 101 34 101 35 101 29 103 32 103 33 103 28 104 31 104 32 104 23 106 29 106 30 106 24 107 28 107 29 107 45 108 27 108 3 108 44 109 26 109 27 109 43 110 25 110 26 110 32 112 26 112 25 112 31 113 27 113 26 113 50 115 23 115 22 115 49 116 24 116 23 116 38 118 20 118 19 118 37 119 21 119 20 119</p>
        </polylist>
        <polylist material="Grass-material" count="18">
          <input semantic="VERTEX" source="#Cube-mesh-vertices" offset="0"/>
          <input semantic="NORMAL" source="#Cube-mesh-normals" offset="1"/>
          <vcount>3 3 3 3 3 3 3 3 3 3 3 3 3 3 3 3 3 3 </vcount>
          <p>14 0 2 0 11 0 9 8 7 8 12 8 12 9 6 9 14 9 4 10 15 10 5 10 12 11 15 11 13 11 0 12 13 12 4 12 9 13 13 13 8 13 15 16 1 16 5 16 14 17 10 17 15 17 14 66 6 66 2 66 9 74 3 74 7 74 12 75 7 75 6 75 4 76 13 76 15 76 12 77 14 77 15 77 0 78 8 78 13 78 9 79 12 79 13 79 15 82 10 82 1 82 14 83 11 83 10 83</p>
        </polylist>
        <polylist material="Stone-material" count="42">
          <input semantic="VERTEX" source="#Cube-mesh-vertices" offset="0"/>
          <input semantic="NORMAL" source="#Cube-mesh-normals" offset="1"/>
          <vcount>3 3 3 3 3 3 3 3 3 3 3 3 3 3 3 3 3 3 3 3 3 3 3 3 3 3 3 3 3 3 3 3 3 3 3 3 3 3 3 3 3 3 </vcount>
          <p>48 18 63 18 62 18 19 21 62 21 53 21 36 30 59 30 58 30 16 33 58 33 52 33 30 36 57 36 56 36 22 39 56 39 54 39 33 45 55 45 57 45 51 48 54 48 63 48 39 51 53 51 59 51 61 54 25 54 43 54 52 55 40 55 16 55 60 56 43 56 40 56 61 57 64 57 65 57 55 58 65 58 57 58 64 59 52 59 58 59 59 60 64 60 58 60 56 61 65 61 66 61 64 62 66 62 65 62 53 63 67 63 59 63 54 64 66 64 63 64 63 65 67 65 62 65 48 84 51 84 63 84 19 87 48 87 62 87 36 96 39 96 59 96 16 99 36 99 58 99 30 102 33 102 57 102 22 105 30 105 56 105 33 111 25 111 55 111 51 114 22 114 54 114 39 117 19 117 53 117 61 120 55 120 25 120 52 121 60 121 40 121 60 122 61 122 43 122 61 123 60 123 64 123 55 124 61 124 65 124 64 125 60 125 52 125 59 126 67 126 64 126 56 127 57 127 65 127 64 128 67 128 66 128 53 129 62 129 67 129 54 130 56 130 66 130 63 131 66 131 67 131</p>
        </polylist>
      </mesh>
    </geometry>
  </library_geometries>
  <library_controllers/>
  <library_visual_scenes>
    <visual_scene id="Scene" name="Scene">
      <node id="Camera" name="Camera" type="NODE">
        <matrix sid="transform">0.6858805 -0.3173701 0.6548619 7.481132 0.7276338 0.3124686 -0.6106656 -6.50764 -0.01081678 0.8953432 0.4452454 5.343665 0 0 0 1</matrix>
        <instance_camera url="#Camera-camera"/>
      </node>
      <node id="Lamp" name="Lamp" type="NODE">
        <matrix sid="transform">-0.2908646 -0.7711008 0.5663932 4.076245 0.9551712 -0.1998834 0.2183912 1.005454 -0.05518906 0.6045247 0.7946723 5.903862 0 0 0 1</matrix>
        <instance_light url="#Lamp-light"/>
      </node>
      <node id="Cube" name="Cube" type="NODE">
        <matrix sid="transform">1 0 0 0 0 1 0 0 0 0 1 0 0 0 0 1</matrix>
        <instance_geometry url="#Cube-mesh" name="Cube">
          <bind_material>
            <technique_common>
              <instance_material symbol="Riverbed-material" target="#Riverbed-material"/>
              <instance_material symbol="Grass-material" target="#Grass-material"/>
              <instance_material symbol="Stone-material" target="#Stone-material"/>
            </technique_common>
          </bind_material>
        </instance_geometry>
      </node>
    </visual_scene>
  </library_visual_scenes>
  <scene>
    <instance_visual_scene url="#Scene"/>
  </scene>
</COLLADA>