<?xml version="1.0" encoding="utf-8"?>
<COLLADA xmlns="http://www.collada.org/2005/11/COLLADASchema" version="1.4.1">
  <asset>
    <contributor>
      <author>Blender User</author>
      <authoring_tool>Blender 2.77.0 commit date:2016-04-05, commit time:18:12, hash:abf6f08</authoring_tool>
    </contributor>
    <created>2016-09-15T20:26:11</created>
    <modified>2016-09-15T20:26:11</modified>
    <unit name="meter" meter="1"/>
    <up_axis>Z_UP</up_axis>
  </asset>
  <library_cameras>
    <camera id="Camera-camera" name="Camera">
      <optics>
        <technique_common>
          <perspective>
            <xfov sid="xfov">49.13434</xfov>
            <aspect_ratio>1.777778</aspect_ratio>
            <znear sid="znear">0.1</znear>
            <zfar sid="zfar">100</zfar>
          </perspective>
        </technique_common>
      </optics>
      <extra>
        <technique profile="blender">
          <YF_dofdist>0</YF_dofdist>
          <shiftx>0</shiftx>
          <shifty>0</shifty>
        </technique>
      </extra>
    </camera>
  </library_cameras>
  <library_lights>
    <light id="Lamp-light" name="Lamp">
      <technique_common>
        <point>
          <color sid="color">1 1 1</color>
          <constant_attenuation>1</constant_attenuation>
          <linear_attenuation>0</linear_attenuation>
          <quadratic_attenuation>0.00111109</quadratic_attenuation>
        </point>
      </technique_common>
      <extra>
        <technique profile="blender">
          <adapt_thresh>0.000999987</adapt_thresh>
          <area_shape>1</area_shape>
          <area_size>0.1</area_size>
          <area_sizey>0.1</area_sizey>
          <area_sizez>1</area_sizez>
          <atm_distance_factor>1</atm_distance_factor>
          <atm_extinction_factor>1</atm_extinction_factor>
          <atm_turbidity>2</atm_turbidity>
          <att1>0</att1>
          <att2>1</att2>
          <backscattered_light>1</backscattered_light>
          <bias>1</bias>
          <blue>1</blue>
          <buffers>1</buffers>
          <bufflag>0</bufflag>
          <bufsize>2880</bufsize>
          <buftype>2</buftype>
          <clipend>30.002</clipend>
          <clipsta>1.000799</clipsta>
          <compressthresh>0.04999995</compressthresh>
          <dist sid="blender_dist">29.99998</dist>
          <energy sid="blender_energy">1</energy>
          <falloff_type>2</falloff_type>
          <filtertype>0</filtertype>
          <flag>0</flag>
          <gamma sid="blender_gamma">1</gamma>
          <green>1</green>
          <halo_intensity sid="blnder_halo_intensity">1</halo_intensity>
          <horizon_brightness>1</horizon_brightness>
          <mode>8192</mode>
          <ray_samp>1</ray_samp>
          <ray_samp_method>1</ray_samp_method>
          <ray_samp_type>0</ray_samp_type>
          <ray_sampy>1</ray_sampy>
          <ray_sampz>1</ray_sampz>
          <red>1</red>
          <samp>3</samp>
          <shadhalostep>0</shadhalostep>
          <shadow_b sid="blender_shadow_b">0</shadow_b>
          <shadow_g sid="blender_shadow_g">0</shadow_g>
          <shadow_r sid="blender_shadow_r">0</shadow_r>
          <sky_colorspace>0</sky_colorspace>
          <sky_exposure>1</sky_exposure>
          <skyblendfac>1</skyblendfac>
          <skyblendtype>1</skyblendtype>
          <soft>3</soft>
          <spotblend>0.15</spotblend>
          <spotsize>75</spotsize>
          <spread>1</spread>
          <sun_brightness>1</sun_brightness>
          <sun_effect_type>0</sun_effect_type>
          <sun_intensity>1</sun_intensity>
          <sun_size>1</sun_size>
          <type>0</type>
        </technique>
      </extra>
    </light>
  </library_lights>
  <library_images/>
  <library_effects>
    <effect id="Riverbed-effect">
      <profile_COMMON>
        <technique sid="common">
          <phong>
            <emission>
              <color sid="emission">0 0 0 1</color>
            </emission>
            <ambient>
              <color sid="ambient">0 0 0 1</color>
            </ambient>
            <diffuse>
              <color sid="diffuse">0.64 0.5263848 0.28 1</color>
            </diffuse>
            <specular>
              <color sid="specular">0.5 0.5 0.5 1</color>
            </specular>
            <shininess>
              <float sid="shininess">50</float>
            </shininess>
            <index_of_refraction>
              <float sid="index_of_refraction">1</float>
            </index_of_refraction>
          </phong>
        </technique>
      </profile_COMMON>
    </effect>
    <effect id="Grass-effect">
      <profile_COMMON>
        <technique sid="common">
          <phong>
            <emission>
              <color sid="emission">0 0 0 1</color>
            </emission>
            <ambient>
              <color sid="ambient">0 0 0 1</color>
            </ambient>
            <diffuse>
              <color sid="diffuse">0.1429817 0.64 0.06556825 1</color>
            </diffuse>
            <specular>
              <color sid="specular">0.5 0.5 0.5 1</color>
            </specular>
            <shininess>
              <float sid="shininess">50</float>
            </shininess>
            <index_of_refraction>
              <float sid="index_of_refraction">1</float>
            </index_of_refraction>
          </phong>
        </technique>
      </profile_COMMON>
    </effect>
    <effect id="Stone-effect">
      <profile_COMMON>
        <technique sid="common">
          <phong>
            <emission>
              <color sid="emission">0 0 0 1</color>
            </emission>
            <ambient>
              <color sid="ambient">0 0 0 1</color>
            </ambient>
            <diffuse>
              <color sid="diffuse">0.64 0.64 0.64 1</color>
            </diffuse>
            <specular>
              <color sid="specular">0.5 0.5 0.5 1</color>
            </specular>
            <shininess>
              <float sid="shininess">50</float>
            </shininess>
            <index_of_refraction>
              <float sid="index_of_refraction">1</float>
            </index_of_refraction>
          </phong>
        </technique>
      </profile_COMMON>
    </effect>
  </library_effects>
  <library_materials>
    <material id="Riverbed-material" name="Riverbed">
      <instance_effect url="#Riverbed-effect"/>
    </material>
    <material id="Grass-material" name="Grass">
      <instance_effect url="#Grass-effect"/>
    </material>
    <material id="Stone-material" name="Stone">
      <instance_effect url="#Stone-effect"/>
    </material>
  </library_materials>
  <library_geometries>
    <geometry id="Cube-mesh" name="Cube">
      <mesh>
        <source id="Cube-mesh-positions">
          <float_array id="Cube-mesh-positions-array" count="636">0.3979312 0.3845656 -0.8153858 0.3947902 -0.3975108 -0.814718 -0.3872861 -0.3943723 -0.8154495 -0.3841449 0.3877043 -0.8161172 0.5326008 0.2853439 1.056 0.2765191 -0.3552845 0.9881665 -0.630661 0.05498027 1.235928 -0.07418024 0.6371263 1.2233 0.5037275 0.1575146 -0.8149403 0.5017722 -0.1738581 -0.8145257 -0.4923457 -0.1679992 -0.8158934 -0.4903903 0.1633736 -0.8163081 0.6820304 -0.06415557 0.9975229 0.5432669 -0.3273511 0.9831336 -0.5396221 0.1855222 1.27526 -0.3152179 0.4438232 1.290542 0.1743101 0.4908405 -0.8158109 -0.1570624 0.4927936 -0.8162668 0.1684442 -0.503278 -0.8145669 -0.1629284 -0.5013251 -0.8150228 0.3501458 0.4702767 1.138967 0.1209187 0.6434893 1.232011 -0.1699935 -0.4126297 1.1328 -0.5914058 -0.146034 1.211193 0.1074566 0.2449688 1.71 -0.1326691 0.002091228 1.720366 0.2763601 -0.1864629 1.598462 0.3349552 0.1130761 1.647274 0.4214237 0.3632991 -0.7444531 0.5398354 0.4310413 -0.5113855 0.4735746 0.2487677 -0.2419551 0.7016667 0.2306456 0.4178247 0.6855626 0.1750703 0.6078893 0.7671822 0.2318643 0.8259418 0.3836383 -0.4204244 -0.7368735 0.4504075 -0.538348 -0.4772182 0.2696236 -0.4693173 -0.1860224 0.180072 -0.6740787 0.4626684 0.1591832 -0.6691387 0.625908 0.07771605 -0.7036911 0.7715095 -0.400038 -0.3830005 -0.745938 -0.5187034 -0.4505184 -0.5218341 -0.444823 -0.2753201 -0.2945339 -0.7409382 -0.1519097 0.3707621 -0.7134273 -0.1277492 0.5733473 -0.839562 -0.04381322 1.048551 -0.3622525 0.4007231 -0.7535176 -0.4292753 0.518871 -0.5560014 -0.2408719 0.4427651 -0.3513911 -0.2273309 0.7557002 0.3258693 -0.1438258 0.7299029 0.55532 -0.1500962 0.8917424 1.102983 -0.7502107 0.3129608 1.098348 -0.6377794 0.2159582 0.5629476 -0.7057044 0.1809979 0.3435888 -0.4778162 -0.04181295 -0.3246961 -0.6206887 -0.1513289 -0.5407952 -0.4937117 -0.1486911 -0.7500281 -0.4633328 0.7008643 1.12033 -0.3930265 0.5611608 0.5551021 -0.484841 0.569894 0.3216001 -0.3922852 0.2593306 -0.3486044 -0.5778498 0.2560211 -0.5568633 -0.4752099 0.1820881 -0.7537009 0.6775489 -0.1234 0.7764687 0.6468291 -0.1558603 0.6178368 0.6728627 -0.1210363 0.4379588 0.506568 0.01526051 -0.2114024 0.6437139 0.130104 -0.4922654 0.5170426 0.1271962 -0.7403199 0.390671 -0.5113037 0.7544869 0.4107211 -0.5069931 0.6258262 0.4381552 -0.4949807 0.4579823 0.4210368 -0.285883 -0.187746 0.6008751 -0.2772459 -0.4761974 0.498541 -0.2035829 -0.7366471 0.2047936 0.4762728 -0.748453 0.2793647 0.5794264 -0.529866 0.2924811 0.3977609 -0.280831 0.5308747 0.4973323 0.3787135 0.53662 0.4263645 0.5889958 0.5841331 0.5392585 0.9130707 -0.1259573 0.4945702 -0.7529134 -0.1278232 0.6213988 -0.5513986 -0.007136464 0.4791175 -0.3266469 0.1393171 0.7344829 0.3393905 0.1926649 0.6642308 0.5681048 0.2038391 0.8140132 1.027691 -0.2765009 -0.6244525 0.8471255 -0.182955 -0.6219938 0.6127443 -0.166094 -0.6420345 0.4406141 0.03588813 -0.50567 -0.2096655 0.1508485 -0.6426236 -0.481662 0.1492882 -0.516065 -0.7374346 -0.6567947 -0.3496977 0.9617459 -0.5356763 -0.3780815 0.5917029 -0.5432336 -0.4192751 0.403245 -0.2637296 -0.4243133 -0.2552287 -0.2563394 -0.6006512 -0.5031946 -0.1814627 -0.4977677 -0.741895 0.4496656 0.2696624 -0.01926541 0.2285227 -0.4507822 0.03825777 -0.4755362 -0.2466782 -0.07351559 -0.2700595 0.4700966 -0.1299716 -0.5065679 -0.01526063 -0.1039266 -0.421037 0.285883 -0.1276007 0.4786766 0.03543937 0.01171654 0.3884268 -0.2657516 0.03579545 0.2648933 0.4236225 -0.05894964 -0.03588819 0.5056698 -0.105197 0.002522051 -0.4792097 0.01279532 -0.2937604 -0.3967606 -0.03388917 1.016422 0.1518404 -1.287238 0.1619908 -0.9859673 -1.271001 -0.9751796 -0.1314537 -1.231357 -0.1207484 1.006354 -1.247593 0.9239964 -0.2944551 -1.287665 0.5610629 -0.7758779 -1.280513 -0.8824166 0.313052 -1.230952 -0.5194827 0.7944748 -1.238104 0.8057702 0.5499445 -1.278297 0.3246107 0.9129211 -1.261777 -0.2830306 -0.8943246 -1.256841 -0.7641906 -0.5313478 -1.240321 0.3715935 0.2853211 -1.2906 -0.2909792 0.3772168 -1.308354 0.2793568 -0.3772668 -1.275513 -0.383216 -0.2853714 -1.293305 0.6037164 0.2289174 1.283854 0.3476347 -0.4117109 1.216021 -0.5595453 -0.001446127 1.463783 -0.003064572 0.5806999 1.451155 0.7531461 -0.120582 1.225378 0.6143826 -0.3837775 1.210988 -0.4685064 0.1290958 1.503115 -0.2441022 0.3873968 1.518397 0.4212615 0.4138503 1.366822 0.1920344 0.5870628 1.459865 -0.09887784 -0.4690561 1.360655 -0.5202901 -0.2024604 1.439047 0.4638476 0.0925613 1.812882 0.3139609 -0.3040256 1.729007 -0.2522119 -0.08666896 1.932318 0.08383929 0.2857015 1.95558 0.3909804 -0.01796066 1.62535 0.429003 -0.1704785 1.595582 -0.1210314 0.0602774 1.737897 -0.08155775 0.1724942 1.735211 0.2665479 0.1824124 1.678381 0.1806045 0.2473545 1.713266 0.0208491 -0.219278 1.681227 -0.1496381 -0.06672209 1.726086 0.09844666 0.3648945 2.076058 -0.3695049 -0.1536318 2.043666 0.5668645 -0.4563011 1.888769 0.775582 0.0959466 2.005566 0.5616142 -0.1163864 1.74758 0.4794615 -0.2809867 1.722186 -0.1968629 -0.006943404 1.964349 -0.06127309 0.1562919 1.988078 0.3489781 0.1972177 1.88186 0.2054283 0.2929382 1.957215 0.040367 -0.359138 1.823903 -0.2248432 -0.2084407 1.901275 0.3548014 -0.1492888 2.181828 0.2966718 -0.3030946 2.149299 -0.2946926 -0.2372938 2.350373 0.173259 0.2812324 2.382765 0.911722 -0.1950132 1.914632 0.7973244 -0.4242194 1.879271 -0.2924314 -0.0426138 2.088269 -0.1036224 0.1846915 2.121311 0.4676527 0.2416808 1.973402 0.2677595 0.3749718 2.078334 0.03791147 -0.5330452 1.892698 -0.3313941 -0.323199 2.000438 0.2427886 0.1079496 2.607223 -0.09326255 -0.2644208 2.583961 0.4729102 -0.4817774 2.38065 0.6227969 -0.08519047 2.464526 0.3927176 -0.2303237 2.156502 0.3608568 -0.2941595 2.146654 -0.2176191 -0.1262758 2.394976 -0.02881014 0.1010295 2.428019 0.3102523 -0.1087006 2.208579 0.2545803 -0.07157796 2.237803 0.1905657 -0.3244685 2.186102 -0.2565817 -0.406861 2.307145 0.8490598 -0.07247334 2.645485 0.6146835 -0.6926124 2.51433 -0.2706353 -0.3527341 2.832245 0.2548447 0.2295379 2.86862 0.7205635 -0.2941382 2.399223 0.6384109 -0.4587385 2.373829 -0.03791356 -0.1846953 2.615993 0.09767621 -0.02145987 2.639721 0.5079274 0.0194658 2.533503 0.3643776 0.1151865 2.608858 0.1993163 -0.5368898 2.475547 -0.06589388 -0.3861925 2.552918 1.001936 -0.3992028 2.543372 0.8734752 -0.6565868 2.503664 -0.1840866 -0.228068 2.882332 0.02793371 0.02718144 2.919437 0.6694395 0.09117668 2.753344 0.444972 0.240854 2.871176 0.1868674 -0.778791 2.662718 -0.2278391 -0.5431472 2.783704 0.2487943 -0.1653642 2.851988 0.5643163 -0.0859341 2.738685 0.1579081 -0.4908223 2.749679 0.6407623 -0.4303039 2.645571</float_array>
          <technique_common>
            <accessor source="#Cube-mesh-positions-array" count="212" stride="3">
              <param name="X" type="float"/>
              <param name="Y" type="float"/>
              <param name="Z" type="float"/>
            </accessor>
          </technique_common>
        </source>
        <source id="Cube-mesh-normals">
          <float_array id="Cube-mesh-normals-array" count="1260">-0.005314946 -0.7464525 0.6654176 -0.5394892 -0.8410468 -0.03989875 0.428515 -0.6406913 0.6370946 -0.6066015 -0.530485 0.592132 -0.1789232 0.3762338 0.9090846 -0.3650797 0.9182353 0.153496 -0.684229 0.07004255 0.7258958 -0.4586132 0.2916032 0.8394293 0.9669277 -0.2505785 0.04755407 0.8041638 -0.5912701 -0.06099516 -0.5225819 0.775139 0.3550601 0.8321447 -0.4188575 -0.363447 0.7482709 -0.3584082 0.5582422 -0.3577754 -0.7482866 0.5586268 0.7456552 -0.003565788 0.6663224 0.3070206 -0.6560505 0.6894463 0.6474834 0.303072 0.6992229 0.003330588 0.7257241 0.6879779 0.04232615 -0.9666465 -0.2525929 -0.9462049 -0.2145809 0.2421805 0.8939107 0.4118122 -0.1770161 0.605006 0.7961774 0.008338809 0.4578158 0.881866 0.1127694 0.05170691 0.980674 0.1886928 -0.04809004 -0.793681 0.6064304 -0.3150795 -0.7023777 0.6382715 -0.04280823 0.9665896 0.2527292 -0.7120521 0.596719 0.3700112 -0.7398666 0.3499207 0.5745894 -0.7257105 0.005143165 0.687981 -0.005585789 -0.9862957 -0.164893 -0.04356914 -0.8955351 -0.442853 -0.1149328 -0.9059156 0.4075627 -0.1834543 -0.8925274 -0.4119946 -0.5115877 -0.8577892 0.04975831 -0.5449057 -0.8074796 -0.2259523 0.4145215 -0.8873792 -0.2018171 0.3364942 -0.8218218 -0.4597617 0.2973833 -0.8709791 0.3910992 0.1609508 -0.8808997 -0.4450963 -0.09330791 -0.9954713 0.01818513 -0.1195174 -0.9489043 -0.2920551 0.6119924 0.4670867 0.638197 0.50594 0.8164138 -0.2783763 0.5392705 0.8022713 0.2560236 0.2736787 0.9585386 -0.07939749 0.1297227 0.8043019 0.5798885 0.1150819 0.882622 -0.455779 0.6209347 0.2850162 0.7302094 0.7775706 0.5496146 -0.3054633 0.831944 0.5095978 0.2194978 0.6405553 0.7679051 -0.003278434 0.4429247 0.6882659 0.57455 0.4646235 0.7587215 -0.4565815 0.984006 -0.00602889 -0.1780336 0.8895201 -0.05479031 -0.4535991 0.9081643 -0.07929348 0.4110357 0.8277801 -0.2865984 -0.4823292 0.8472982 -0.5307455 0.01987713 0.8259469 -0.5528744 0.1101894 0.8931843 0.4158517 -0.1711409 0.8050552 0.3172639 -0.5012283 0.8472372 0.3194199 0.4244527 0.8671812 0.04176867 -0.4962382 0.9950559 -0.07797724 0.06151002 0.9790004 -0.1195499 -0.1651248 -0.9997307 0.005871117 -0.02245503 -0.854371 0.04203712 -0.5179608 -0.8538299 0.1098639 0.5088266 -0.8571559 0.2063509 -0.4719146 -0.8500856 0.4932227 0.1846239 -0.7892125 0.5535157 -0.2660151 -0.9027205 -0.4191422 -0.09703397 -0.7915585 -0.3254829 -0.5172002 -0.8429631 -0.2574048 0.4723939 -0.8610235 -0.1780595 -0.4763753 -0.9861485 0.1141896 0.1202996 -0.9381857 0.1978963 -0.2839801 -0.05334132 0.7771958 0.6269941 0.1490804 0.9487493 -0.2786571 0.1762049 0.951751 0.2512408 -0.134362 0.98116 -0.1388238 -0.184653 0.7825596 0.5945618 -0.2689952 0.8140105 -0.5148091 -0.9000568 0.4261998 0.09083819 -0.7495723 0.3877148 -0.5364874 -0.6909998 0.388585 0.6095253 -0.6922361 0.5615071 -0.453342 -0.5688577 0.7825719 0.2529472 -0.5405397 0.798618 -0.2646247 -0.4293037 -0.9008192 -0.06498646 -0.4045365 -0.7868615 -0.4660464 -0.4549389 -0.7320748 0.5070475 -0.5489813 -0.7579411 -0.3523423 -0.8030452 -0.574643 0.1578096 -0.7889811 -0.5759208 -0.2140654 0.8949336 -0.4279751 -0.1262189 0.7969141 -0.4218273 -0.4324234 0.7664617 -0.4435119 0.4645793 0.6884075 -0.6003411 -0.407045 0.5702077 -0.8207775 0.03445851 0.5409606 -0.8391691 0.05618631 0.7610898 -0.626657 0.167462 -0.6365609 -0.7711664 0.009628593 -0.7607284 0.6252874 -0.1740927 0.06830143 0.8758673 -0.4776937 -0.9812358 -0.1536833 -0.1164388 -0.9534592 0.258476 -0.1552601 0.9842824 0.1510468 0.09150457 0.9549751 -0.2600078 0.1428934 0.7920073 0.4460916 -0.4168056 0.498924 0.7524793 -0.4299415 0.142179 -0.9839999 0.1073755 -0.2717174 -0.9595754 0.0733813 -0.09853309 0.02146804 -0.9949022 -0.01090925 0.09904867 -0.9950228 -0.1388316 0.09001076 -0.986217 -0.01621091 -0.02050518 -0.9996584 0.02318316 -0.02592521 -0.9993951 0.0110712 0.02830511 -0.999538 3.29346e-4 0.04590237 -0.998946 -0.02217936 -0.003133773 -0.9997492 0.01894712 -0.05665576 -0.998214 -0.6361334 -0.29383 0.7134411 0.350744 0.7403206 0.5735016 -0.2898976 0.6274556 0.7226749 -0.6442671 0.2439828 0.7248395 0.09872204 -0.8492928 0.5186095 0.6775094 0.3881407 0.6247622 -0.2164696 0.5504175 0.8063384 -0.2911992 -0.6630774 0.689588 -0.5726206 -0.1293873 0.809546 -0.5064941 0.194728 0.8399671 0.2736733 -0.8055917 0.5254759 0.7136074 -0.4073903 0.5699102 -0.8114341 0.4555882 0.3660795 0.09537243 -0.9589014 -0.2672311 0.7015412 0.7113426 -0.04279953 -0.9382053 0.332337 0.09655588 0.06389963 -0.7323483 -0.6779254 0.5292762 0.7880836 -0.3143103 -0.3733314 0.9087318 -0.1866281 -0.5974591 -0.4784552 -0.6435242 -0.9364895 0.2586587 -0.2368192 -0.8871181 0.1835525 -0.4234737 -0.09489846 -0.7173548 -0.6902147 0.7693963 -0.2967398 -0.5656632 0.7506833 0.2165232 0.6241734 0.6098244 0.4605823 0.6449638 -0.05519849 0.5981938 0.7994481 0.06292247 -0.6707958 -0.7389681 0.384127 0.6718782 -0.6332663 -0.6656722 0.6580826 -0.3518636 -0.4310069 -0.3266583 -0.8411466 -0.6946619 0.6251996 -0.3557672 -0.6961419 0.0264306 -0.7174176 -0.2420456 -0.3539523 -0.9034001 0.4170849 -0.06834799 -0.9062939 -0.04250103 0.837238 -0.5451846 0.6765215 0.4887129 -0.5508888 0.510043 0.8179415 -0.2661351 -0.05608171 0.9824543 -0.1778723 0.1157696 0.4410375 0.8899908 -0.5812229 0.737899 0.3430525 -0.5145415 -0.8508168 -0.106574 -0.8329754 0.4476029 0.3252747 -0.9529748 -0.2556641 0.1627116 0.3198814 -0.8428572 0.4327443 0.4163444 -0.3380135 0.8440405 0.9436596 0.086241 0.3194825 0.5786913 0.2590779 0.7733015 -0.69343 0.627474 -0.3541629 0.4646555 0.4548546 -0.7597386 0.1876537 0.7657215 -0.6151885 -0.4327862 0.6437803 0.6310651 0.1684488 -0.984546 -0.04789793 -0.7212998 0.2396775 0.6498318 -0.7359912 -0.3178035 0.5977607 -0.04236912 -0.8060765 -0.5902928 0.5673875 -0.1585215 -0.8080486 0.825708 0.36651 -0.4288086 0.285548 0.8194513 -0.4969528 0.5808982 0.4777642 -0.6590135 0.1343709 -0.7869924 0.6021525 -0.7474752 0.57171 0.3382729 0.4255759 -0.08251172 0.9011533 -0.6726256 0.6823282 -0.2863617 -0.4965097 -0.515069 -0.6987004 -0.7246326 0.6221473 -0.296379 -0.8079384 -0.03158223 -0.58842 -0.1515942 -0.5999907 -0.7855129 0.4317318 -0.07682752 -0.8987243 -0.04831635 0.9065012 -0.4194297 0.2945058 0.8234499 -0.4849709 0.5351126 0.4698055 -0.702095 0.3758054 0.7610061 -0.5288102 0.07900947 -0.7589384 -0.6463513 -0.6376276 0.4374651 0.6340784 0.1254091 -0.312195 0.9417043 -0.01093596 -0.04190987 0.9990616 0.1130843 -0.3265637 0.9383859 0.2836275 -0.2829146 0.9162504 0.3698816 -0.1651068 0.9142906 0.3139656 -0.1462801 0.938098 0.3081173 -0.2586534 0.915512 0.09958744 -0.4531267 0.885866 0.2345065 -0.2593379 0.9368835 0.3780242 0.76172 -0.5261943 0.03678381 -0.5173615 -0.8549761 -0.7153485 0.6362067 -0.2889941 -0.4372238 -0.6096736 0.6611607 -0.5394889 -0.8410469 -0.03989869 0.09540319 -0.8057245 0.5845565 -0.5952317 -0.2116282 0.7751857 -0.1485814 0.4850482 0.8617725 -0.4196428 0.9067258 -0.04181444 -0.5762066 0.1603744 0.801415 -0.4652092 0.3562169 0.8103641 0.7091832 0.189597 0.6790524 0.8769974 -0.4682651 0.1077191 -0.5225815 0.7751396 0.3550596 0.832144 -0.4188585 -0.3634473 0.3613575 -0.6564281 0.6622107 -0.6404287 -0.3531851 0.6819908 0.6072595 -0.4480519 0.6561139 -0.1173546 -0.6814935 0.7223535 0.6700799 -0.1394682 0.7290691 0.4514667 0.5671073 0.6888883 0.04232621 -0.9666465 -0.2525926 -0.9462049 -0.2145811 0.2421805 0.8939105 0.4118123 -0.1770163 0.6050059 0.7961774 0.00833857 0.4292353 0.9031921 0.001080691 0.005933463 0.9995036 -0.03094249 0.3122147 -0.6237468 0.7165626 -0.3172737 -0.6921482 0.648281 -0.04280728 0.9665896 0.2527293 -0.7120526 0.5967184 0.3700112 -0.3177366 0.629695 0.7088918 -0.5684546 0.438883 0.6958743 -0.05566608 -0.9978556 0.03443384 -0.07167857 -0.9075994 -0.4136732 -0.2958023 -0.7826173 0.5477328 -0.4614553 -0.8326329 -0.3062376 -0.5654951 -0.8007069 0.1976965 -0.6070939 -0.7824332 -0.1386918 0.377307 -0.9241747 -0.05950444 0.3033277 -0.8533166 -0.4240794 0.08770436 -0.8743458 0.4773126 -0.06161612 -0.9245092 -0.3761466 -0.1396197 -0.9850398 0.10101 -0.2384455 -0.9654307 -0.1052958 0.5433921 0.4588583 0.7029752 0.5478392 0.7618144 -0.3457037 0.501904 0.8527082 0.1448487 0.2723292 0.9590439 -0.07792228 0.06145733 0.8579118 0.5101081 0.05393165 0.845323 -0.5315266 0.7075249 0.23213 0.667476 0.7966981 0.4411445 -0.4131147 0.8198477 0.5489326 0.1628587 0.6366783 0.7710552 -0.0107091 0.3915082 0.7530938 0.5287449 0.4077588 0.7641949 -0.4997388 0.9982484 -0.05561077 0.02019172 0.913792 -0.1115051 -0.3905777 0.8346489 -0.1966423 0.5144835 0.7786383 -0.5084068 -0.3677569 0.8270505 -0.5539499 0.09553611 0.8044663 -0.5929988 -0.03444498 0.926875 0.3751463 -0.0129671 0.8568044 0.2677561 -0.4406733 0.8513 0.184548 0.4911523 0.8914892 -0.09833484 -0.4422411 0.9863235 -0.1118026 0.1211045 0.9342618 -0.194054 -0.2991621 -0.9740274 0.05691486 0.2191607 -0.8728759 0.07276397 -0.4824865 -0.7236754 0.2564082 0.6407408 -0.8094332 0.4375536 -0.3916181 -0.7685953 0.5522815 0.3228724 -0.7737233 0.5858743 -0.2410467 -0.9254096 -0.368416 0.0888068 -0.811576 -0.308103 -0.4964042 -0.8231852 -0.04318416 0.5661283 -0.901826 0.06052452 -0.4278396 -0.9420477 0.2151283 0.2574217 -0.9320931 0.2675206 -0.2442035 0.2818793 0.4773341 0.8322838 0.1934944 0.9314162 -0.3082594 0.0541414 0.9942783 0.0920841 -0.138232 0.981076 -0.13558 -0.276762 0.7891182 0.5483568 -0.3038411 0.7686585 -0.5628896 -0.8686027 0.4485862 0.2104758 -0.7489528 0.4250085 -0.5083675 -0.5557802 0.4691865 0.6862743 -0.5278708 0.7411113 -0.4148573 -0.5376229 0.7936008 0.2848848 -0.514045 0.8209806 -0.2484927 -0.4649236 -0.8833677 0.05922567 -0.4169558 -0.7854396 -0.4574196 -0.5791848 -0.5437437 0.6073613 -0.7432634 -0.5883075 -0.3185182 -0.8085961 -0.5611926 0.1767352 -0.8669332 -0.4765822 -0.145933 0.8835615 -0.4681805 -0.01123213 0.7910554 -0.4542664 -0.4097236 0.6547716 -0.5354593 0.5334395 0.5305606 -0.7736119 -0.346454 0.5394087 -0.8367419 0.09434652 0.5250981 -0.8459389 0.09305506 0.7441732 -0.640598 0.1893156 -0.6380778 -0.7698919 0.01110219 -0.762289 0.622473 -0.1773218 -0.07335501 0.8482066 -0.5245615 -0.9830527 -0.1463329 -0.110427 -0.9534487 0.2586051 -0.1551101 0.9844243 0.1365749 0.1107079 0.9486421 -0.2712376 0.162814 0.6198681 0.6199119 -0.4811164 0.2981233 0.7958176 -0.5270645 0.1088647 -0.9850523 0.1334937 -0.2790666 -0.9568287 0.08124464 -0.1137082 -0.03774005 -0.9927972 -0.08677351 0.1190035 -0.9890948 -0.1292798 -0.00452423 -0.9915979 -0.01875615 -7.13422e-4 -0.9998239 0.02323228 -0.02598983 -0.9993923 0.005190193 -1.165e-4 -0.9999866 0.03345483 0.04835116 -0.99827 -0.03205531 -0.001227676 -0.9994854 -0.09015136 -0.07430166 -0.9931526 -0.6406448 0.1330067 0.7562298 0.647902 0.3273829 0.6877816 0.156166 0.6287471 0.7617673 -0.4715667 0.3621116 0.8040523 0.0987212 -0.8492928 0.5186097 0.6775096 0.3881412 0.6247617 -0.1473224 0.6450465 0.7498075 -0.4035686 -0.642538 0.6513657 -0.5131484 0.1010576 0.8523299 -0.5505003 -0.2070241 0.8087587 0.2736724 -0.8055919 0.5254762 0.7473074 0.05709534 0.662021 -0.8114345 0.4555875 0.3660792 0.09537231 -0.9589014 -0.2672309 0.7015411 0.7113426 -0.04279941 -0.7629987 0.6431655 -0.06458407 0.07478147 -0.7363061 -0.6725036 0.6083841 0.7347888 -0.2999236 -0.6495912 0.7536258 0.1003975 -0.5271588 -0.6417692 -0.5569884 -0.772433 0.6088511 -0.1806871 -0.8888269 -0.08497333 -0.4502959 -0.1126468 -0.7542759 -0.646822 0.6636903 0.2992553 -0.6855375 0.7506834 0.2165232 0.6241733 0.609824 0.4605829 0.6449638 -0.05520248 0.5981935 0.7994481 0.06292319 -0.670796 -0.7389678 0.2462995 0.7071567 -0.6627716 -0.6656704 0.6580837 -0.3518648 -0.4310073 -0.3266577 -0.8411466 -0.694662 0.6251996 -0.3557671 -0.6961417 0.02642917 -0.7174177 0.08831924 -0.6474804 -0.7569472 0.4170843 -0.06834787 -0.9062942 -0.04250079 0.8372386 -0.5451838 0.7446191 0.4068958 -0.5291298 0.4646677 0.8606828 -0.2081087 -0.02474564 0.9858333 -0.1658932 0.637349 0.2111086 0.7410935 -0.5812233 0.7378988 0.3430524 0.2791008 -0.8452612 0.4556714 -0.8329751 0.4476034 0.325275 -0.9529744 -0.2556648 0.1627119 0.1199516 -0.7964131 0.5927375 0.4163423 -0.3380142 0.8440412 -0.06080156 0.9591031 0.2764497 0.5786924 0.2590773 0.7733007 -0.6934306 0.6274737 -0.3541625 0.4646563 0.4548541 -0.7597383 0.187654 0.7657203 -0.6151897 -0.4327862 0.6437804 0.631065 -0.5343568 -0.6890643 -0.489544 -0.7213 0.2396772 0.6498318 -0.7359924 -0.3178035 0.5977594 -0.04236888 -0.8060768 -0.5902925 0.5673849 -0.1585209 -0.8080506 -0.05489408 0.7820709 0.6207672 0.2855485 0.8194508 -0.4969533 0.580897 0.4777646 -0.6590142 0.1343724 -0.7869917 0.6021531 -0.7474753 0.5717099 0.3382728 0.4255732 -0.08251267 0.9011543 -0.6726236 0.68233 -0.2863625 -0.4965088 -0.515069 -0.6987009 -0.7246326 0.6221472 -0.296379 -0.8079375 -0.03158247 -0.5884214 -0.1515951 -0.5999908 -0.7855126 0.4317342 -0.0768283 -0.898723 -0.04831564 0.9065014 -0.4194293 0.2945056 0.82345 -0.4849708 0.5351126 0.4698057 -0.7020949 0.375805 0.7610069 -0.5288091 0.07901114 -0.7589386 -0.6463509 -0.6376277 0.4374651 0.6340783 -0.1516552 -0.2760389 0.9491066 0.2560247 -0.04459238 0.9656412 0.1004453 -0.2243394 0.9693207 0.2824641 -0.1914582 0.9399777 0.2392003 -0.3513427 0.9051749 0.3114338 -0.2604873 0.9138685 0.3790407 -0.2254469 0.8974975 0.3721591 -0.4446374 0.8147363 0.1215054 -0.2757272 0.9535256 0.3780248 0.7617197 -0.5261943 0.03678333 -0.5173617 -0.8549761 -0.7153487 0.6362066 -0.2889941</float_array>
          <technique_common>
            <accessor source="#Cube-mesh-normals-array" count="420" stride="3">
              <param name="X" type="float"/>
              <param name="Y" type="float"/>
              <param name="Z" type="float"/>
            </accessor>
          </technique_common>
        </source>
        <vertices id="Cube-mesh-vertices">
          <input semantic="POSITION" source="#Cube-mesh-positions"/>
        </vertices>
        <polylist material="Riverbed-material" count="330">
          <input semantic="VERTEX" source="#Cube-mesh-vertices" offset="0"/>
          <input semantic="NORMAL" source="#Cube-mesh-normals" offset="1"/>
          <vcount>3 3 3 3 3 3 3 3 3 3 3 3 3 3 3 3 3 3 3 3 3 3 3 3 3 3 3 3 3 3 3 3 3 3 3 3 3 3 3 3 3 3 3 3 3 3 3 3 3 3 3 3 3 3 3 3 3 3 3 3 3 3 3 3 3 3 3 3 3 3 3 3 3 3 3 3 3 3 3 3 3 3 3 3 3 3 3 3 3 3 3 3 3 3 3 3 3 3 3 3 3 3 3 3 3 3 3 3 3 3 3 3 3 3 3 3 3 3 3 3 3 3 3 3 3 3 3 3 3 3 3 3 3 3 3 3 3 3 3 3 3 3 3 3 3 3 3 3 3 3 3 3 3 3 3 3 3 3 3 3 3 3 3 3 3 3 3 3 3 3 3 3 3 3 3 3 3 3 3 3 3 3 3 3 3 3 3 3 3 3 3 3 3 3 3 3 3 3 3 3 3 3 3 3 3 3 3 3 3 3 3 3 3 3 3 3 3 3 3 3 3 3 3 3 3 3 3 3 3 3 3 3 3 3 3 3 3 3 3 3 3 3 3 3 3 3 3 3 3 3 3 3 3 3 3 3 3 3 3 3 3 3 3 3 3 3 3 3 3 3 3 3 3 3 3 3 3 3 3 3 3 3 3 3 3 3 3 3 3 3 3 3 3 3 3 3 3 3 3 3 3 3 3 3 3 3 3 3 3 3 3 3 3 3 3 3 3 3 3 3 3 3 3 3 3 3 3 3 3 3 </vcount>
          <p>19 0 122 0 18 0 22 1 139 1 23 1 70 2 5 2 39 2 23 3 45 3 94 3 58 4 7 4 51 4 17 5 46 5 82 5 6 6 52 6 45 6 52 7 15 7 58 7 33 8 12 8 64 8 64 9 13 9 70 9 15 10 131 10 7 10 13 11 132 11 133 11 1 12 117 12 9 12 2 13 123 13 19 13 9 14 116 14 8 14 18 15 113 15 1 15 8 16 112 16 0 16 16 17 121 17 17 17 22 18 129 18 138 18 23 19 130 19 6 19 12 20 128 20 132 20 20 21 137 21 136 21 0 22 76 22 28 22 16 23 82 23 76 23 39 24 22 24 88 24 22 25 94 25 88 25 21 26 131 26 137 26 15 27 134 27 135 27 3 28 119 28 11 28 11 29 118 29 10 29 93 30 19 30 18 30 92 31 99 31 93 31 89 34 96 34 90 34 88 35 95 35 89 35 34 36 18 36 1 36 35 37 93 37 34 37 38 40 90 40 37 40 39 41 89 41 38 41 20 42 87 42 21 42 81 43 86 43 87 43 79 44 86 44 80 44 76 47 83 47 77 47 4 48 81 48 20 48 33 49 80 49 81 49 31 50 80 50 32 50 28 53 77 53 29 53 69 54 9 54 8 54 68 55 75 55 69 55 65 58 72 58 66 58 65 59 70 59 71 59 28 60 8 60 0 60 29 61 69 61 28 61 32 64 66 64 31 64 32 65 64 65 65 65 57 66 11 66 10 66 56 67 63 67 57 67 53 70 60 70 54 70 52 71 59 71 53 71 40 72 10 72 2 72 41 73 57 73 40 73 44 76 54 76 43 76 45 77 53 77 44 77 87 78 7 78 21 78 87 79 50 79 51 79 85 80 50 80 86 80 82 83 47 83 83 83 63 84 3 84 11 84 62 85 46 85 63 85 59 88 49 88 60 88 58 89 50 89 59 89 99 90 2 90 19 90 98 91 40 91 99 91 95 94 43 94 96 94 94 95 44 95 95 95 75 96 1 96 9 96 74 97 34 97 75 97 71 100 37 100 72 100 70 101 38 101 71 101 127 114 114 114 118 114 125 115 115 115 121 115 125 116 118 116 119 116 116 117 126 117 124 117 124 118 127 118 125 118 112 119 124 119 120 119 124 120 121 120 120 120 113 121 126 121 117 121 122 122 127 122 126 122 10 123 114 123 2 123 0 124 120 124 16 124 17 125 115 125 3 125 135 126 146 126 147 126 129 127 145 127 26 127 136 128 27 128 128 128 135 129 24 129 131 129 138 130 151 130 139 130 134 131 25 131 146 131 130 132 151 132 25 132 138 133 26 133 150 133 132 134 145 134 133 134 14 135 130 135 134 135 13 136 129 136 5 136 4 137 136 137 128 137 146 138 159 138 147 138 145 139 141 139 26 139 27 140 160 140 140 140 147 141 143 141 24 141 150 142 163 142 151 142 25 143 158 143 146 143 151 144 142 144 25 144 150 145 141 145 162 145 145 146 156 146 157 146 128 147 144 147 132 147 136 148 149 148 148 148 137 149 24 149 149 149 157 150 154 150 141 150 140 151 172 151 155 151 143 152 171 152 152 152 162 153 175 153 163 153 142 154 170 154 158 154 163 155 153 155 142 155 141 156 174 156 162 156 156 157 169 157 157 157 161 158 152 158 173 158 144 159 140 159 156 159 149 160 160 160 148 160 149 161 143 161 161 161 172 162 164 162 155 162 171 163 167 163 152 163 174 164 187 164 175 164 170 165 166 165 182 165 175 166 166 166 153 166 174 167 165 167 186 167 169 168 180 168 181 168 173 169 167 169 185 169 172 170 185 170 184 170 158 171 171 171 159 171 156 172 155 172 168 172 161 173 172 173 160 173 183 174 176 174 167 174 186 175 199 175 187 175 182 176 177 176 194 176 166 177 199 177 177 177 186 178 178 178 198 178 180 179 193 179 181 179 167 180 197 180 185 180 185 181 196 181 184 181 180 182 179 182 192 182 154 183 181 183 165 183 171 184 182 184 183 184 155 185 180 185 168 185 195 186 191 186 176 186 199 187 206 187 207 187 177 188 202 188 194 188 199 189 190 189 177 189 198 190 189 190 206 190 193 191 200 191 201 191 197 192 191 192 205 192 197 193 204 193 196 193 192 194 188 194 200 194 184 195 179 195 164 195 181 196 178 196 165 196 183 197 194 197 195 197 179 207 204 207 188 207 193 208 189 208 178 208 194 209 203 209 195 209 19 210 123 210 122 210 22 211 138 211 139 211 70 212 13 212 5 212 23 213 6 213 45 213 58 214 15 214 7 214 17 215 3 215 46 215 6 216 14 216 52 216 52 217 14 217 15 217 33 218 4 218 12 218 64 219 12 219 13 219 15 220 135 220 131 220 13 221 12 221 132 221 1 222 113 222 117 222 2 223 114 223 123 223 9 224 117 224 116 224 18 225 122 225 113 225 8 226 116 226 112 226 16 227 120 227 121 227 22 228 5 228 129 228 23 229 139 229 130 229 12 230 4 230 128 230 20 231 21 231 137 231 0 232 16 232 76 232 16 233 17 233 82 233 39 234 5 234 22 234 22 235 23 235 94 235 21 236 7 236 131 236 15 237 14 237 134 237 3 238 115 238 119 238 11 239 119 239 118 239 93 240 99 240 19 240 92 241 98 241 99 241 89 244 95 244 96 244 88 245 94 245 95 245 34 246 93 246 18 246 35 247 92 247 93 247 38 250 89 250 90 250 39 251 88 251 89 251 20 252 81 252 87 252 81 253 80 253 86 253 79 254 85 254 86 254 76 257 82 257 83 257 4 258 33 258 81 258 33 259 32 259 80 259 31 260 79 260 80 260 28 263 76 263 77 263 69 264 75 264 9 264 68 265 74 265 75 265 65 268 71 268 72 268 65 269 64 269 70 269 28 270 69 270 8 270 29 271 68 271 69 271 32 274 65 274 66 274 32 275 33 275 64 275 57 276 63 276 11 276 56 277 62 277 63 277 53 280 59 280 60 280 52 281 58 281 59 281 40 282 57 282 10 282 41 283 56 283 57 283 44 286 53 286 54 286 45 287 52 287 53 287 87 288 51 288 7 288 87 289 86 289 50 289 85 290 49 290 50 290 82 293 46 293 47 293 63 294 46 294 3 294 62 295 47 295 46 295 59 298 50 298 49 298 58 299 51 299 50 299 99 300 40 300 2 300 98 301 41 301 40 301 95 304 44 304 43 304 94 305 45 305 44 305 75 306 34 306 1 306 74 307 35 307 34 307 71 310 38 310 37 310 70 311 39 311 38 311 127 324 123 324 114 324 125 325 119 325 115 325 125 326 127 326 118 326 116 327 117 327 126 327 124 328 126 328 127 328 112 329 116 329 124 329 124 330 125 330 121 330 113 331 122 331 126 331 122 332 123 332 127 332 10 333 118 333 114 333 0 334 112 334 120 334 17 335 121 335 115 335 135 336 134 336 146 336 129 337 133 337 145 337 136 338 148 338 27 338 135 339 147 339 24 339 138 340 150 340 151 340 134 341 130 341 25 341 130 342 139 342 151 342 138 343 129 343 26 343 132 344 144 344 145 344 14 345 6 345 130 345 13 346 133 346 129 346 4 347 20 347 136 347 146 348 158 348 159 348 145 349 157 349 141 349 27 350 148 350 160 350 147 351 159 351 143 351 150 352 162 352 163 352 25 353 142 353 158 353 151 354 163 354 142 354 150 355 26 355 141 355 145 356 144 356 156 356 128 357 27 357 144 357 136 358 137 358 149 358 137 359 131 359 24 359 157 360 169 360 154 360 140 361 160 361 172 361 143 362 159 362 171 362 162 363 174 363 175 363 142 364 153 364 170 364 163 365 175 365 153 365 141 366 154 366 174 366 156 367 168 367 169 367 161 368 143 368 152 368 144 369 27 369 140 369 149 370 161 370 160 370 149 371 24 371 143 371 172 372 184 372 164 372 171 373 183 373 167 373 174 374 186 374 187 374 170 375 153 375 166 375 175 376 187 376 166 376 174 377 154 377 165 377 169 378 168 378 180 378 173 379 152 379 167 379 172 380 173 380 185 380 158 381 170 381 171 381 156 382 140 382 155 382 161 383 173 383 172 383 183 384 195 384 176 384 186 385 198 385 199 385 182 386 166 386 177 386 166 387 187 387 199 387 186 388 165 388 178 388 180 389 192 389 193 389 167 390 176 390 197 390 185 391 197 391 196 391 180 392 164 392 179 392 154 393 169 393 181 393 171 394 170 394 182 394 155 395 164 395 180 395 195 396 203 396 191 396 199 397 198 397 206 397 177 398 190 398 202 398 199 399 207 399 190 399 198 400 178 400 189 400 193 401 192 401 200 401 197 402 176 402 191 402 197 403 205 403 204 403 192 404 179 404 188 404 184 405 196 405 179 405 181 406 193 406 178 406 183 407 182 407 194 407 179 417 196 417 204 417 193 418 201 418 189 418 194 419 202 419 203 419</p>
        </polylist>
        <polylist material="Grass-material" count="18">
          <input semantic="VERTEX" source="#Cube-mesh-vertices" offset="0"/>
          <input semantic="NORMAL" source="#Cube-mesh-normals" offset="1"/>
          <vcount>3 3 3 3 3 3 3 3 3 3 3 3 3 3 3 3 3 3 </vcount>
          <p>202 198 207 198 210 198 191 199 208 199 205 199 208 200 202 200 210 200 200 201 211 201 201 201 208 202 211 202 209 202 188 203 209 203 200 203 205 204 209 204 204 204 211 205 189 205 201 205 210 206 206 206 211 206 202 408 190 408 207 408 191 409 203 409 208 409 208 410 203 410 202 410 200 411 209 411 211 411 208 412 210 412 211 412 188 413 204 413 209 413 205 414 208 414 209 414 211 415 206 415 189 415 210 416 207 416 206 416</p>
        </polylist>
        <polylist material="Stone-material" count="72">
          <input semantic="VERTEX" source="#Cube-mesh-vertices" offset="0"/>
          <input semantic="NORMAL" source="#Cube-mesh-normals" offset="1"/>
          <vcount>3 3 3 3 3 3 3 3 3 3 3 3 3 3 3 3 3 3 3 3 3 3 3 3 3 3 3 3 3 3 3 3 3 3 3 3 3 3 3 3 3 3 3 3 3 3 3 3 3 3 3 3 3 3 3 3 3 3 3 3 3 3 3 3 3 3 3 3 3 3 3 3 </vcount>
          <p>91 32 98 32 92 32 90 33 111 33 110 33 36 38 92 38 35 38 37 39 110 39 101 39 108 45 84 45 109 45 77 46 84 46 78 46 30 51 108 51 100 51 29 52 78 52 30 52 67 56 74 56 68 56 66 57 107 57 106 57 30 62 68 62 29 62 31 63 106 63 100 63 55 68 62 68 56 68 54 69 105 69 104 69 42 74 56 74 41 74 43 75 104 75 102 75 109 81 48 81 103 81 83 82 48 82 84 82 61 86 47 86 62 86 60 87 103 87 105 87 97 92 41 92 98 92 96 93 102 93 111 93 73 98 35 98 74 98 72 99 101 99 107 99 107 102 36 102 73 102 111 103 42 103 97 103 105 104 48 104 61 104 109 105 49 105 85 105 102 106 55 106 42 106 104 107 61 107 55 107 100 108 67 108 30 108 106 109 73 109 67 109 100 110 79 110 31 110 108 111 85 111 79 111 101 112 91 112 36 112 110 113 97 113 91 113 91 242 97 242 98 242 90 243 96 243 111 243 36 248 91 248 92 248 37 249 90 249 110 249 108 255 78 255 84 255 77 256 83 256 84 256 30 261 78 261 108 261 29 262 77 262 78 262 67 266 73 266 74 266 66 267 72 267 107 267 30 272 67 272 68 272 31 273 66 273 106 273 55 278 61 278 62 278 54 279 60 279 105 279 42 284 55 284 56 284 43 285 54 285 104 285 109 291 84 291 48 291 83 292 47 292 48 292 61 296 48 296 47 296 60 297 49 297 103 297 97 302 42 302 41 302 96 303 43 303 102 303 73 308 36 308 35 308 72 309 37 309 101 309 107 312 101 312 36 312 111 313 102 313 42 313 105 314 103 314 48 314 109 315 103 315 49 315 102 316 104 316 55 316 104 317 105 317 61 317 100 318 106 318 67 318 106 319 107 319 73 319 100 320 108 320 79 320 108 321 109 321 85 321 101 322 110 322 91 322 110 323 111 323 97 323</p>
        </polylist>
      </mesh>
    </geometry>
  </library_geometries>
  <library_controllers/>
  <library_visual_scenes>
    <visual_scene id="Scene" name="Scene">
      <node id="Camera" name="Camera" type="NODE">
        <matrix sid="transform">0.6858805 -0.3173701 0.6548619 7.481132 0.7276338 0.3124686 -0.6106656 -6.50764 -0.01081678 0.8953432 0.4452454 5.343665 0 0 0 1</matrix>
        <instance_camera url="#Camera-camera"/>
      </node>
      <node id="Lamp" name="Lamp" type="NODE">
        <matrix sid="transform">-0.2908646 -0.7711008 0.5663932 4.076245 0.9551712 -0.1998834 0.2183912 1.005454 -0.05518906 0.6045247 0.7946723 5.903862 0 0 0 1</matrix>
        <instance_light url="#Lamp-light"/>
      </node>
      <node id="Cube" name="Cube" type="NODE">
        <matrix sid="transform">1 0 0 0 0 1 0 0 0 0 1 0 0 0 0 1</matrix>
        <instance_geometry url="#Cube-mesh" name="Cube">
          <bind_material>
            <technique_common>
              <instance_material symbol="Riverbed-material" target="#Riverbed-material"/>
              <instance_material symbol="Grass-material" target="#Grass-material"/>
              <instance_material symbol="Stone-material" target="#Stone-material"/>
            </technique_common>
          </bind_material>
        </instance_geometry>
      </node>
    </visual_scene>
  </library_visual_scenes>
  <scene>
    <instance_visual_scene url="#Scene"/>
  </scene>
</COLLADA>