%YAML 1.1
%TAG !u! tag:unity3d.com,2011:
--- !u!114 &11400000
MonoBehaviour:
  m_ObjectHideFlags: 0
  m_PrefabParentObject: {fileID: 0}
  m_PrefabInternal: {fileID: 0}
  m_GameObject: {fileID: 0}
  m_Enabled: 1
  m_EditorHideFlags: 0
  m_Script: {fileID: 11500000, guid: 82f1523dc06aba8469c8e24601db4b42, type: 3}
  m_Name: HitstunAntonState
  m_EditorClassIdentifier: 
  m_CanSwitchCharacters: 0
  m_AnimatorState: 
  m_HitstunState: {fileID: 11400000}
  m_DisabledControls: 0
  m_UseFriction: 1
  m_CameraMode: 5
  m_NoFrictionWhileMidair: 1
  m_HitstunForceVertical: 4
  m_HitstunForceHorizontal: 44
  m_AdjustableHitstunMovement: 1
  m_AdjustableHitStunVelAddToDiv: 1
  m_AdjustableHitStunVelMul: 0.01
  m_EndStunOnLowVelMagnitude: 1
  m_EndStunOnLowVelMagnitudeMinimum: 1
  m_DisableControlsTemporarily: 0
  m_DisabledControlsMaxTime: 0.3
  m_RotateTowardsHitstunSource: 0
  m_MaxHitstunTime: 0.5
  m_StateTimer:
    m_MaxTime: 0.5
  m_TimerState: {fileID: 11400000, guid: 44e804f83f513494c912d6041590afca, type: 2}
