%YAML 1.1
%TAG !u! tag:unity3d.com,2011:
--- !u!114 &11400000
MonoBehaviour:
  m_ObjectHideFlags: 0
  m_PrefabParentObject: {fileID: 0}
  m_PrefabInternal: {fileID: 0}
  m_GameObject: {fileID: 0}
  m_Enabled: 1
  m_EditorHideFlags: 0
  m_Script: {fileID: 11500000, guid: 79a5e99321e905640a577fbbc6354be3, type: 3}
  m_Name: StandingTestState
  m_EditorClassIdentifier: 
  m_UseRunningSpeed: 0
  m_AnimatorState: Idle
  m_HitstunState: {fileID: 11400000, guid: 57687bc165edabf4ea8004d7ec736239, type: 2}
  m_StateUponSeeingPlayer: {fileID: 11400000, guid: 08d059ca447cb4a4386000d6249298e2,
    type: 2}
